{
    "tabs": [
        {
            "description": {
                "de": "Für alle, die nicht genug bekommen oder unabhängig von Uhrzeiten trotzdem sportlich aktiv werden möchten, haben wir hier einige Videos mit einem Workout für euch erstellt. Viel Spaß damit!",
                "en": "For all those who can't get enough or who still want to get active regardless of the time, we have created a few videos with a workout for you. Have fun with it!"
            },
            "segment": [
                {
                    "name": {
                        "de": "Mobilisation",
                        "en": "Mobilisation"
                    },
                    "entries": [
                        {
                            "imageUrl": "https://tinycampus.de/sport/images/hochschulsport.jpg",
                            "link": {
                                "de": "https://www.youtube.com/embed/T5iMGNw8p4k",
                                "en": "https://www.youtube.com/embed/T5iMGNw8p4k"
                            },
                            "text": {
                                "de": "Mobilisation - Nacken (Youtube)",
                                "en": "Mobilisation - Neck (Youtube)"
                            }
                        },
                        {
                            "imageUrl": "https://tinycampus.de/sport/images/hochschulsport.jpg",
                            "link": {
                                "de": "https://www.youtube.com/embed/OpUp2hwic8g",
                                "en": "https://www.youtube.com/embed/OpUp2hwic8g"
                            },
                            "text": {
                                "de": "Mobilisation - Oberkörper (Youtube)",
                                "en": "Mobilisation - Upper Body (Youtube)"
                            }
                        },
                        {
                            "imageUrl": "https://tinycampus.de/sport/images/hochschulsport.jpg",
                            "link": {
                                "de": "https://www.youtube.com/embed/eYRi6AB5U9Q",
                                "en": "https://www.youtube.com/embed/eYRi6AB5U9Q"
                            },
                            "text": {
                                "de": "Mobilisation - Arme (Youtube)",
                                "en": "Mobilisation - Arms (Youtube)"
                            }
                        },
                        {
                            "imageUrl": "https://tinycampus.de/sport/images/hochschulsport.jpg",
                            "link": {
                                "de": "https://www.youtube.com/embed/fszQgGJkRNM",
                                "en": "https://www.youtube.com/embed/fszQgGJkRNM"
                            },
                            "text": {
                                "de": "Mobilisation - Füße (YouTube)",
                                "en": "Mobilisation - Legs (YouTube)"
                            }
                        },
                        {
                            "imageUrl": "https://tinycampus.de/sport/images/hochschulsport.jpg",
                            "link": {
                                "de": "https://www.youtube.com/embed/g7TuAKVy8UE",
                                "en": "https://www.youtube.com/embed/g7TuAKVy8UE"
                            },
                            "text": {
                                "de": "Mobilisation - Ganzer Körper (YouTube)",
                                "en": "Mobilisation - Whole Body (YouTube)"
                            }
                        },
                        {
                            "imageUrl": "https://tinycampus.de/sport/images/hochschulsport.jpg",
                            "link": {
                                "de": "https://www.youtube.com/embed/OpUp2hwic8g",
                                "en": "https://www.youtube.com/embed/OpUp2hwic8g"
                            },
                            "text": {
                                "de": "Mobilisation - Hände (YouTube)",
                                "en": "Mobilisation - Hands (YouTube)"
                            }
                        }
                    ]
                },
                {
                    "name": {
                        "de": "Kräftigung",
                        "en": "Strengthening"
                    },
                    "entries": [
                        {
                            "imageUrl": "https://tinycampus.de/sport/images/hochschulsport.jpg",
                            "link": {
                                "de": "https://www.youtube.com/embed/LDd25fPPSeA",
                                "en": "https://www.youtube.com/embed/LDd25fPPSeA"
                            },
                            "text": {
                                "de": "Kräftigung - Arme und Brust (YouTube)",
                                "en": "Strengthening - Arms and Chest (YouTube)"
                            }
                        },
                        {
                            "imageUrl": "https://tinycampus.de/sport/images/hochschulsport.jpg",
                            "link": {
                                "de": "https://www.youtube.com/embed/FsXaxsw2ouo",
                                "en": "https://www.youtube.com/embed/FsXaxsw2ouo"
                            },
                            "text": {
                                "de": "Kräftigung - Bauch 2 050 (YouTube)",
                                "en": "Strengthening - Abdomen 2 050 (YouTube)"
                            }
                        },
                        {
                            "imageUrl": "https://tinycampus.de/sport/images/hochschulsport.jpg",
                            "link": {
                                "de": "https://www.youtube.com/embed/HFYZe4x4pqg",
                                "en": "https://www.youtube.com/embed/HFYZe4x4pqg"
                            },
                            "text": {
                                "de": "Kräftigung - Beine (YouTube)",
                                "en": "Strengthening - Legs (YouTube)"
                            }
                        },
                        {
                            "imageUrl": "https://tinycampus.de/sport/images/hochschulsport.jpg",
                            "link": {
                                "de": "https://www.youtube.com/embed/zheoOCFPIiw",
                                "en": "https://www.youtube.com/embed/zheoOCFPIiw"
                            },
                            "text": {
                                "de": "Kräftigung - Brust und Arme (YouTube)",
                                "en": "Strengthening - Chest and Arms (YouTube)"
                            }
                        }
                    ]
                },
                {
                    "name": {
                        "de": "Dehnen",
                        "en": "Stretching"
                    },
                    "entries": [
                        {
                            "imageUrl": "https://tinycampus.de/sport/images/hochschulsport.jpg",
                            "link": {
                                "de": "https://www.youtube.com/embed/gd3I6n_J__Y",
                                "en": "https://www.youtube.com/embed/gd3I6n_J__Y"
                            },
                            "text": {
                                "de": "Dehnen - Brust (YouTube)",
                                "en": "Stretching - Chest (YouTube)"
                            }
                        },
                        {
                            "imageUrl": "https://tinycampus.de/sport/images/hochschulsport.jpg",
                            "link": {
                                "de": "https://www.youtube.com/embed/7pFPrbu_YuI",
                                "en": "https://www.youtube.com/embed/7pFPrbu_YuI"
                            },
                            "text": {
                                "de": "Dehnen - Beine (YouTube)",
                                "en": "Stretching - Legs (YouTube)"
                            }
                        },
                        {
                            "imageUrl": "https://tinycampus.de/sport/images/hochschulsport.jpg",
                            "link": {
                                "de": "https://www.youtube.com/embed/ENcFL8mPkBI",
                                "en": "https://www.youtube.com/embed/ENcFL8mPkBI"
                            },
                            "text": {
                                "de": "Dehnen - Beine (YouTube)",
                                "en": "Stretching - Legs (YouTube)"
                            }
                        },
                        {
                            "imageUrl": "https://tinycampus.de/sport/images/hochschulsport.jpg",
                            "link": {
                                "de": "https://www.youtube.com/embed/5idg5UsnRvE",
                                "en": "https://www.youtube.com/embed/5idg5UsnRvE"
                            },
                            "text": {
                                "de": "Dehnen - Oberer Rücken und Rumpf (YouTube)",
                                "en": "Stretching - Upper Back and Torso (YouTube)"
                            }
                        }
                    ]
                },
                {
                    "name": {
                        "de": "Trainingsvideos zum Mitmachen - Fitness- und/oder Gesundheitskurs (5 bis 15 Minuten)",
                        "en": "Workout videos to follow - fitness and/or health class (5 to 15 minutes)"
                    },
                    "entries": [
                        {
                            "imageUrl": "https://tinycampus.de/sport/images/hochschulsport.jpg",
                            "link": {
                                "de": "https://www.youtube.com/embed/-a4ZNZ_rsds",
                                "en": "https://www.youtube.com/embed/-a4ZNZ_rsds"
                            },
                            "text": {
                                "de": "In diesem Video zeigen wir in 15 Minuten wie man ganz einfach zuhause, ohne sportliche Hilfsmittel, Übungen für den Rücken machen kann. Mach mit bei dieser einfachen aber wirkungsvollen Rückenkräftigung!",
                                "en": "In this video we show in 15 minutes how you can easily do exercises for the back at home, without sports equipment. Join us for this simple but effective back strengthening!"
                            }
                        },
                        {
                            "imageUrl": "https://tinycampus.de/sport/images/hochschulsport.jpg",
                            "link": {
                                "de": "https://www.youtube.com/embed/Ll4QcheE81k",
                                "en": "https://www.youtube.com/embed/Ll4QcheE81k"
                            },
                            "text": {
                                "de": "In diesem Video zeigen wir in 15 Minuten wie man ganz einfach zuhause, ohne sportliche Hilfsmittel, wirkungsvolle Übungen für einen starken und flexiblen Rücken machen kann. Mach mit und tu deinem Rücken etwas Gutes!",
                                "en": "In this video we show in 15 minutes how you can easily do effective exercises for a strong and flexible back at home, without any sports equipment. Join us and do something good for your back!"
                            }
                        },
                        {
                            "imageUrl": "https://tinycampus.de/sport/images/hochschulsport.jpg",
                            "link": {
                                "de": "https://www.youtube.com/embed/oAKeZojNZK8",
                                "en": "https://www.youtube.com/embed/oAKeZojNZK8"
                            },
                            "text": {
                                "de": "In diesem Video zeigen wir in unter 15 Minuten wie man ganz einfach zuhause, ohne sportliche Hilfsmittel, ein Ganzkörper-Fitnesstraining mit Yoga-Elementen durchführen kann. Mach mit bei diesem etwas anstrengenden aber wohltuenden Ganzkörper-Fitnesstraining!",
                                "en": "In this video we show in less than 15 minutes how you can easily perform a full-body fitness workout with yoga elements at home, without any sports equipment. Join us for this somewhat strenuous but beneficial full-body fitness workout!"
                            }
                        },
                        {
                            "imageUrl": "https://tinycampus.de/sport/images/hochschulsport.jpg",
                            "link": {
                                "de": "https://www.youtube.com/embed/yFyoWWPz8n4",
                                "en": "https://www.youtube.com/embed/yFyoWWPz8n4"
                            },
                            "text": {
                                "de": "In diesem Video zeigen wir in 15 Minuten wie man ganz einfach zuhause, ohne sportliche Hilfsmittel, ein Ganzkörper-Stretching für mehr Beweglichkeit und Flexibilität durchführen kann. Mach mit bei diesem etwas anstrengenden aber wohltuenden Ganzkörper-Training!",
                                "en": "In this video we show in 15 minutes how you can easily perform a full-body stretching at home, without sports equipment, for more mobility and flexibility. Join us for this somewhat strenuous but beneficial full-body workout!"
                            }
                        },
                        {
                            "imageUrl": "https://tinycampus.de/sport/images/hochschulsport.jpg",
                            "link": {
                                "de": "https://www.youtube.com/embed/B2xXAm3_sd0",
                                "en": "https://www.youtube.com/embed/B2xXAm3_sd0"
                            },
                            "text": {
                                "de": "In diesem Video zeigen wir in unter 15 Minuten wie man ganz einfach zuhause oder unterwegs, ohne sportliche Hilfsmittel, ein Faszientraining durchführen kann.",
                                "en": "In this video we show in under 15 minutes how you can easily do fascia training at home or on the go, without any sports equipment."
                            }
                        },
                        {
                            "imageUrl": "https://tinycampus.de/sport/images/hochschulsport.jpg",
                            "link": {
                                "de": "https://www.youtube.com/embed/qiN2a1eiF3U",
                                "en": "https://www.youtube.com/embed/qiN2a1eiF3U"
                            },
                            "text": {
                                "de": "In diesem Video zeigen wir in unter 15 Minuten wie man ganz einfach zuhause oder unterwegs, ohne sportliche Hilfsmittel, ein effektive, spaßiges und auch anstrengendes Animal Moves Ganzkörper-Training durchführen kann.",
                                "en": "In this video we show in under 15 minutes how you can easily do an effective, fun and also exhausting Animal Moves full body workout at home or on the go, without any sports equipment."
                            }
                        },
                        {
                            "imageUrl": "https://tinycampus.de/sport/images/hochschulsport.jpg",
                            "link": {
                                "de": "https://www.youtube.com/embed/HrE2xmrSJ6E",
                                "en": "https://www.youtube.com/embed/HrE2xmrSJ6E"
                            },
                            "text": {
                                "de": "In diesem Video zeigen wir in 15 Minuten wie man ganz einfach zuhause oder unterwegs, nur durch den kreativen Einsatz verschiedener Hilfsmittel, die jeder besitzt, ein effektives, spaßiges und auch anstrengendes Ganzkörper-Training durchführen kann. Als Trainingsmaterial eingesetzt werden Wollsocken, Handtuch und eine zusammengerollte Matte oder ein Handtuch. Mach mit bei diesem sehr fordernden aber auch spaßigen Ganzkörper-Training!",
                                "en": "In this video we show in 15 minutes how you can easily do an effective, fun and also strenuous full-body workout at home or on the go, just by creatively using different tools that everyone has. Wool socks, towel and a rolled up mat or towel are used as training materials. Join us for this very challenging but fun full body workout!"
                            }
                        },
                        {
                            "imageUrl": "https://tinycampus.de/sport/images/hochschulsport.jpg",
                            "link": {
                                "de": "https://www.youtube.com/embed/yZ57W_qzwZQ",
                                "en": "https://www.youtube.com/embed/yZ57W_qzwZQ"
                            },
                            "text": {
                                "de": "In diesem Video zeigen wir in 15 Minuten wie man sich ganz einfach zuhause ohne sportliche Hilfsmittel fit halten kann. Zieh die Sportschuhe an, stelle einen Stuhl und etwas zu trinken bereit und los gehts. Mach mit bei dieser einfachen aber wirkungsvollen Ganzkörper-Kräftigung!",
                                "en": "In this video we show in 15 minutes how you can easily keep fit at home without any sports equipment. Put on your sneakers, get a chair and something to drink and you're ready to go. Join us for this simple but effective full-body workout!"
                            }
                        },
                        {
                            "imageUrl": "https://tinycampus.de/sport/images/hochschulsport.jpg",
                            "link": {
                                "de": "https://www.youtube.com/embed/Q4MGlvW6-ZY",
                                "en": "https://www.youtube.com/embed/Q4MGlvW6-ZY"
                            },
                            "text": {
                                "de": "In diesem Video zeigen wir in 15 Minuten wie man sich ganz einfach zuhause ohne sportliche Hilfsmittel fit halten kann. Natürlich kannst du die Übungen auch indoor machen.",
                                "en": "In this video we show in 15 minutes how you can easily keep fit at home without any sports equipment. Of course, you can also do the exercises indoors."
                            }
                        },
                        {
                            "imageUrl": "https://tinycampus.de/sport/images/hochschulsport.jpg",
                            "link": {
                                "de": "https://www.youtube.com/embed/yG4k-6lM1Co",
                                "en": "https://www.youtube.com/embed/yG4k-6lM1Co"
                            },
                            "text": {
                                "de": "In diesem Video zeigen wir in 5 Minuten einige Übungen für die Beine.",
                                "en": "In this video we show some exercises for the legs in 5 minutes."
                            }
                        },
                        {
                            "imageUrl": "https://tinycampus.de/sport/images/hochschulsport.jpg",
                            "link": {
                                "de": "https://www.youtube.com/embed/nQ4VRS0ZrJM",
                                "en": "https://www.youtube.com/embed/nQ4VRS0ZrJM"
                            },
                            "text": {
                                "de": "In diesem Video zeigen wir in 5 Minuten einige Übungen für den Oberkörper.",
                                "en": "In this video we show some exercises for the upper body in 5 minutes."
                            }
                        },
                        {
                            "imageUrl": "https://tinycampus.de/sport/images/hochschulsport.jpg",
                            "link": {
                                "de": "https://www.youtube.com/embed/EGTBgxOKkgY",
                                "en": "https://www.youtube.com/embed/EGTBgxOKkgY"
                            },
                            "text": {
                                "de": "In diesem Video zeigen wir in 15 Minuten wie man ganz einfach zuhause oder unterwegs, ohne sportliche Hilfsmittel, ein effektives Yoga-Training durchführen kann.",
                                "en": "In this video we show in 15 minutes how you can easily do an effective yoga workout at home or on the go, without any sports equipment."
                            }
                        },
                        {
                            "imageUrl": "https://tinycampus.de/sport/images/hochschulsport.jpg",
                            "link": {
                                "de": "https://www.youtube.com/embed/cD7rzWx34oo",
                                "en": "https://www.youtube.com/embed/cD7rzWx34oo"
                            },
                            "text": {
                                "de": "In diesem Video zeigen wir in etwas über 15 Minuten wie man ganz einfach zuhause oder unterwegs, ohne sportliche Hilfsmittel, ein ausgleichendes Yoga-Training durchführen kann.",
                                "en": "In this video we show in a little over 15 minutes how you can easily do a balancing yoga workout at home or on the go, without any sports equipment."
                            }
                        }
                    ]
                }
            ],
            "headline": {
                "de": "Trainingsvideos zum Mitmachen - Fitness- und/ oder Gesundheitskurs",
                "en": "Workout videos to follow - fitness and/ or health class"
            },
            "tab": {
                "de": "Aktuelle Videos",
                "en": "Current Videos"
            }
        },
        {
            "description": {
                "de": "Nachdem der Winter zu Ende geht und der Frühlingsanfang vor der Tür steht - die Tage wieder länger werden und sich beim Spazieren das Aufblühen der Natur in die Wahrnehmung drängt - laden wir an dieser Stelle zu einer Bewegungseinheit abseits des Bildschirmes ein. Mit diesem Angebot des Sporthörbuches können Sie sich eine Bewegungspause und ihren Augen eine Entspannungspause gönnen, fernab vom Bildschirm.",
                "en": "Nachdem der Winter zu Ende geht und der Frühlingsanfang vor der Tür steht - die Tage wieder länger werden und sich beim Spazieren das Aufblühen der Natur in die Wahrnehmung drängt - laden wir an dieser Stelle zu einer Bewegungseinheit abseits des Bildschirmes ein. Mit diesem Angebot des Sporthörbuches können Sie sich eine Bewegungspause und ihren Augen eine Entspannungspause gönnen, fernab vom Bildschirm."
            },
            "segment": [
                {
                    "name": {
                        "de": "THM-Sporthörbuch",
                        "en": "THM-Sporthörbuch"
                    },
                    "entries": [
                        {
                            "imageUrl": "https://tinycampus.de/sport/images/hochschulsport.jpg",
                            "link": {
                                "de": "https://www.thm.de/sport/images/mysimpleshow_Hochschulsport_-_Was_steckt_dahinter_.mp4",
                                "en": "https://www.thm.de/sport/images/mysimpleshow_Hochschulsport_-_Was_steckt_dahinter_.mp4"
                            },
                            "text": {
                                "de": "Der Hochschulsport stellt sich vor",
                                "en": "The university sport introduces itself"
                            }
                        },
                        {
                            "imageUrl": "https://tinycampus.de/sport/images/hoerbuch.jpg",
                            "link": {
                                "de": "https://www.thm.de/sport/images/podcast/SH1_Ü0.0_Einleitung_mit_Musik.mp3",
                                "en": "https://www.thm.de/sport/images/podcast/SH1_Ü0.0_Einleitung_mit_Musik.mp3"
                            },
                            "text": {
                                "de": "Mit Musik",
                                "en": "With music"
                            }
                        },
                        {
                            "imageUrl": "https://tinycampus.de/sport/images/hoerbuch.jpg",
                            "link": {
                                "de": "https://www.thm.de/sport/images/podcast/001_Sporthoerbuch_Folge_1_0_Einleitung.mp3",
                                "en": "https://www.thm.de/sport/images/podcast/001_Sporthoerbuch_Folge_1_0_Einleitung.mp3"
                            },
                            "text": {
                                "de": "Ohne Musik",
                                "en": "Without music"
                            }
                        },
                        {
                            "imageUrl": "https://tinycampus.de/sport/images/hoerbuch.jpg",
                            "link": {
                                "de": "https://www.thm.de/sport/images/podcast/SH1_mit_Musik_komplett.mp3",
                                "en": "https://www.thm.de/sport/images/podcast/SH1_mit_Musik_komplett.mp3"
                            },
                            "text": {
                                "de": "Ganze Folge mit Musik",
                                "en": "Full episode with music"
                            }
                        },
                        {
                            "imageUrl": "https://tinycampus.de/sport/images/hoerbuch.jpg",
                            "link": {
                                "de": "https://www.thm.de/sport/images/podcast/SH1_nur_Stimme_komplett.mp3",
                                "en": "https://www.thm.de/sport/images/podcast/SH1_nur_Stimme_komplett.mp3"
                            },
                            "text": {
                                "de": "Ganze Folge ohne Musik",
                                "en": "Full episode without music"
                            }
                        },
                        {
                            "imageUrl": "https://tinycampus.de/sport/images/hoerbuch.jpg",
                            "link": {
                                "de": "https://www.thm.de/sport/images/podcast/SH1_Ü0.0_Einleitung_mit_Musik.mp3",
                                "en": "https://www.thm.de/sport/images/podcast/SH1_Ü0.0_Einleitung_mit_Musik.mp3"
                            },
                            "text": {
                                "de": "Folge 1 - Einleitung mit Musik",
                                "en": "Episode 1 - Introduction with music"
                            }
                        },
                        {
                            "imageUrl": "https://tinycampus.de/sport/images/hoerbuch.jpg",
                            "link": {
                                "de": "https://www.thm.de/sport/images/podcast/SH1_Ü1.0_Stabilisierung_des_unteren_Rückens_mit_Musik.mp3",
                                "en": "https://www.thm.de/sport/images/podcast/SH1_Ü1.0_Stabilisierung_des_unteren_Rückens_mit_Musik.mp3"
                            },
                            "text": {
                                "de": "Übung 1: Stabilisierung des unteren Rückens mit Musik",
                                "en": "Exercise 1: Stabilization of the lower back with music"
                            }
                        },
                        {
                            "imageUrl": "https://tinycampus.de/sport/images/hoerbuch.jpg",
                            "link": {
                                "de": "https://www.thm.de/sport/images/podcast/SH1_Ü1.1_Stabilisierung_des_unteren_Rückens_Intensivierung_mit_Musik.mp3",
                                "en": "https://www.thm.de/sport/images/podcast/SH1_Ü1.1_Stabilisierung_des_unteren_Rückens_Intensivierung_mit_Musik.mp3"
                            },
                            "text": {
                                "de": "Übung 1: Stabilisierung des unteren Rückens - Intensivierung mit Musik",
                                "en": "Exercise 1: Stabilization of the lower back - intensification with music"
                            }
                        },
                        {
                            "imageUrl": "https://tinycampus.de/sport/images/hoerbuch.jpg",
                            "link": {
                                "de": "https://www.thm.de/sport/images/podcast/SH1_Ü2.0_Bauchpresse_mit_Musik.mp3",
                                "en": "https://www.thm.de/sport/images/podcast/SH1_Ü2.0_Bauchpresse_mit_Musik.mp3"
                            },
                            "text": {
                                "de": "Übung 2: Bauchpresse mit Musik",
                                "en": "Exercise 2: Abdominal press with music"
                            }
                        },
                        {
                            "imageUrl": "https://tinycampus.de/sport/images/hoerbuch.jpg",
                            "link": {
                                "de": "https://www.thm.de/sport/images/podcast/SH1_Ü0.0_Einleitung_nur_Stimme.mp3",
                                "en": "https://www.thm.de/sport/images/podcast/SH1_Ü0.0_Einleitung_nur_Stimme.mp3"
                            },
                            "text": {
                                "de": "Folge 1 - Einleitung ohne Musik",
                                "en": "Episode 1 - Introduction without music"
                            }
                        },
                        {
                            "imageUrl": "https://tinycampus.de/sport/images/hoerbuch.jpg",
                            "link": {
                                "de": "https://www.thm.de/sport/images/podcast/SH1_Ü1.0_Stabilisierung_des_unteren_Rückens_nur_Stimme.mp3",
                                "en": "https://www.thm.de/sport/images/podcast/SH1_Ü1.0_Stabilisierung_des_unteren_Rückens_nur_Stimme.mp3"
                            },
                            "text": {
                                "de": "Übung 1: Stabilisierung des unteren Rückens ohne Musik",
                                "en": "Exercise 1: Stabilization of the lower back without music"
                            }
                        },
                        {
                            "imageUrl": "https://tinycampus.de/sport/images/hoerbuch.jpg",
                            "link": {
                                "de": "https://www.thm.de/sport/images/podcast/SH1_Ü1.1_Stabilisierung_des_unteren_Rückens_Intensivierung_nur_Stimme.mp3",
                                "en": "https://www.thm.de/sport/images/podcast/SH1_Ü1.1_Stabilisierung_des_unteren_Rückens_Intensivierung_nur_Stimme.mp3"
                            },
                            "text": {
                                "de": "Übung 1: Stabilisierung des unteren Rückens - Intensivierung ohne Musik",
                                "en": "Exercise 1: Stabilization of the lower back - intensification without music"
                            }
                        },
                        {
                            "imageUrl": "https://tinycampus.de/sport/images/hoerbuch.jpg",
                            "link": {
                                "de": "https://www.thm.de/sport/images/podcast/SH1_Ü2.0_Bauchpresse_nur_Stimme.mp3",
                                "en": "https://www.thm.de/sport/images/podcast/SH1_Ü2.0_Bauchpresse_nur_Stimme.mp3"
                            },
                            "text": {
                                "de": "Übung 2: Bauchpresse ohne Musik",
                                "en": "Exercise 2: abdominal press without music"
                            }
                        },
                        {
                            "imageUrl": "https://tinycampus.de/sport/images/hoerbuch.jpg",
                            "link": {
                                "de": "https://www.thm.de/sport/images/podcast/005_Sporthoerbuch_Folge_2_Progessive_Muskelentspannung-Musik.mp3",
                                "en": "https://www.thm.de/sport/images/podcast/005_Sporthoerbuch_Folge_2_Progessive_Muskelentspannung-Musik.mp3"
                            },
                            "text": {
                                "de": "Ganze Folge mit Musik",
                                "en": "Full episode with music"
                            }
                        },
                        {
                            "imageUrl": "https://tinycampus.de/sport/images/hoerbuch.jpg",
                            "link": {
                                "de": "https://www.thm.de/sport/images/podcast/006_Sporthoerbuch_Folge_2_Progessive_Muskelentspannung.mp3",
                                "en": "https://www.thm.de/sport/images/podcast/006_Sporthoerbuch_Folge_2_Progessive_Muskelentspannung.mp3"
                            },
                            "text": {
                                "de": "Ganze Folge ohne Musik",
                                "en": "Full episode without music"
                            }
                        },
                        {
                            "imageUrl": "https://tinycampus.de/sport/images/hoerbuch.jpg",
                            "link": {
                                "de": "https://www.thm.de/sport/images/podcast/SH3_mit_Musik_komplett.mp3",
                                "en": "https://www.thm.de/sport/images/podcast/SH3_mit_Musik_komplett.mp3"
                            },
                            "text": {
                                "de": "Ganze Folge mit Musik",
                                "en": "Full episode with music"
                            }
                        },
                        {
                            "imageUrl": "https://tinycampus.de/sport/images/hoerbuch.jpg",
                            "link": {
                                "de": "https://www.thm.de/sport/images/podcast/SH3_nur_Stimme_komplett.mp3",
                                "en": "https://www.thm.de/sport/images/podcast/SH3_nur_Stimme_komplett.mp3"
                            },
                            "text": {
                                "de": "Ganze Folge ohne Musik",
                                "en": "Full episode without music"
                            }
                        },
                        {
                            "imageUrl": "https://tinycampus.de/sport/images/hoerbuch.jpg",
                            "link": {
                                "de": "https://www.thm.de/sport/images/podcast/SH3_Ü0.0_Einleitung_mit_Musik.mp3",
                                "en": "https://www.thm.de/sport/images/podcast/SH3_Ü0.0_Einleitung_mit_Musik.mp3"
                            },
                            "text": {
                                "de": "Folge 3 - Einleitung mit Musik",
                                "en": "Episode 3 - Introduction with music"
                            }
                        },
                        {
                            "imageUrl": "https://tinycampus.de/sport/images/hoerbuch.jpg",
                            "link": {
                                "de": "https://www.thm.de/sport/images/podcast/SH3_Ü1.0_Skifliegerin_mit_Musik.mp3",
                                "en": "https://www.thm.de/sport/images/podcast/SH3_Ü1.0_Skifliegerin_mit_Musik.mp3"
                            },
                            "text": {
                                "de": "Übung 1: Skifliegen mit Musik",
                                "en": "Exercise 1: Ski flying with music"
                            }
                        },
                        {
                            "imageUrl": "https://tinycampus.de/sport/images/hoerbuch.jpg",
                            "link": {
                                "de": "https://www.thm.de/sport/images/podcast/SH3_Ü1.1_Skifliegerin_mit_Musik.mp3",
                                "en": "https://www.thm.de/sport/images/podcast/SH3_Ü1.1_Skifliegerin_mit_Musik.mp3"
                            },
                            "text": {
                                "de": "Übung 1: Skifliegen - Variante 1 mit Musik",
                                "en": "Exercise 1: Ski flying - Variation 1 with music"
                            }
                        },
                        {
                            "imageUrl": "https://tinycampus.de/sport/images/hoerbuch.jpg",
                            "link": {
                                "de": "https://www.thm.de/sport/images/podcast/SH3_Ü1.2_Skifliegerin_mit_Musik.mp3",
                                "en": "https://www.thm.de/sport/images/podcast/SH3_Ü1.2_Skifliegerin_mit_Musik.mp3"
                            },
                            "text": {
                                "de": "Übung 1: Skifliegen - Variante 2 mit Musik",
                                "en": "Exercise 1: Ski flying - Variation 2 with music"
                            }
                        },
                        {
                            "imageUrl": "https://tinycampus.de/sport/images/hoerbuch.jpg",
                            "link": {
                                "de": "https://www.thm.de/sport/images/podcast/SH3_Ü2.0_Russian_Twist_mit_Musik.mp3",
                                "en": "https://www.thm.de/sport/images/podcast/SH3_Ü2.0_Russian_Twist_mit_Musik.mp3"
                            },
                            "text": {
                                "de": "Übung 2: Russian Twist mit Musik",
                                "en": "Exercise 2: Russian Twist with music"
                            }
                        },
                        {
                            "imageUrl": "https://tinycampus.de/sport/images/hoerbuch.jpg",
                            "link": {
                                "de": "https://www.thm.de/sport/images/podcast/SH3_Ü2.1_Russian_Twist_mit_Musik.mp3",
                                "en": "https://www.thm.de/sport/images/podcast/SH3_Ü2.1_Russian_Twist_mit_Musik.mp3"
                            },
                            "text": {
                                "de": "Übung 2: Russian Twist - Variante 1 mit Musik",
                                "en": "Exercise 2: Russian Twist - Variation 1 with music"
                            }
                        },
                        {
                            "imageUrl": "https://tinycampus.de/sport/images/hoerbuch.jpg",
                            "link": {
                                "de": "https://www.thm.de/sport/images/podcast/SH3_Ü2.2_Russian_Twist_mit_Musik.mp3",
                                "en": "https://www.thm.de/sport/images/podcast/SH3_Ü2.2_Russian_Twist_mit_Musik.mp3"
                            },
                            "text": {
                                "de": "Übung 2: Russian Twist - Variante 2 mit Musik",
                                "en": "Exercise 2: Russian Twist - Variation 2 with music"
                            }
                        },
                        {
                            "imageUrl": "https://tinycampus.de/sport/images/hoerbuch.jpg",
                            "link": {
                                "de": "https://www.thm.de/sport/images/podcast/SH3_Ü2.3_Russian_Twist_mit_Musik.mp3",
                                "en": "https://www.thm.de/sport/images/podcast/SH3_Ü2.3_Russian_Twist_mit_Musik.mp3"
                            },
                            "text": {
                                "de": "Übung 2: Russian Twist - Variante 3 mit Musik",
                                "en": "Exercise 2: Russian Twist - Variation 3 with music"
                            }
                        },
                        {
                            "imageUrl": "https://tinycampus.de/sport/images/hoerbuch.jpg",
                            "link": {
                                "de": "https://www.thm.de/sport/images/podcast/SH3_Ü3.0_Plank_mit_Stuhl_mit_Musik.mp3",
                                "en": "https://www.thm.de/sport/images/podcast/SH3_Ü3.0_Plank_mit_Stuhl_mit_Musik.mp3"
                            },
                            "text": {
                                "de": "Übung 3: Plank mit Stuhl mit Musik",
                                "en": "Exercise 3: Plank with chair with music"
                            }
                        },
                        {
                            "imageUrl": "https://tinycampus.de/sport/images/hoerbuch.jpg",
                            "link": {
                                "de": "https://www.thm.de/sport/images/podcast/SH3_Ü3.1_Plank_mit_Stuhl_mit_Musik.mp3",
                                "en": "https://www.thm.de/sport/images/podcast/SH3_Ü3.1_Plank_mit_Stuhl_mit_Musik.mp3"
                            },
                            "text": {
                                "de": "Übung 3: Plank mit Stuhl - Variante 1 mit Musik",
                                "en": "Exercise 3: Plank with chair - Variation 1 with music"
                            }
                        },
                        {
                            "imageUrl": "https://tinycampus.de/sport/images/hoerbuch.jpg",
                            "link": {
                                "de": "https://www.thm.de/sport/images/podcast/SH3_Ü3.2_Plank_mit_Stuhl_mit_Musik.mp3",
                                "en": "https://www.thm.de/sport/images/podcast/SH3_Ü3.2_Plank_mit_Stuhl_mit_Musik.mp3"
                            },
                            "text": {
                                "de": "Übung 3: Plank mit Stuhl - Variante 2 mit Musik",
                                "en": "Exercise 3: Plank with chair - Variation 2 with music"
                            }
                        },
                        {
                            "imageUrl": "https://tinycampus.de/sport/images/hoerbuch.jpg",
                            "link": {
                                "de": "https://www.thm.de/sport/images/podcast/SH3_Ü3.3_Plank_mit_Stuhl_mit_Musik.mp3",
                                "en": "https://www.thm.de/sport/images/podcast/SH3_Ü3.3_Plank_mit_Stuhl_mit_Musik.mp3"
                            },
                            "text": {
                                "de": "bung 3: Plank mit Stuhl - Variante 3 mit Musik",
                                "en": "Exercise 3: Plank with chair - Variation 3 with music"
                            }
                        },
                        {
                            "imageUrl": "https://tinycampus.de/sport/images/hoerbuch.jpg",
                            "link": {
                                "de": "https://www.thm.de/sport/images/podcast/SH3_Ü0.0_Einleitung_nur_Stimme.mp3",
                                "en": "https://www.thm.de/sport/images/podcast/SH3_Ü0.0_Einleitung_nur_Stimme.mp3"
                            },
                            "text": {
                                "de": "Folge 3 - Einleitung ohne Musik",
                                "en": "Episode 3 - Introduction without music"
                            }
                        },
                        {
                            "imageUrl": "https://tinycampus.de/sport/images/hoerbuch.jpg",
                            "link": {
                                "de": "https://www.thm.de/sport/images/podcast/SH3_Ü1.0_Skifliegerin_nur_Stimme.mp3",
                                "en": "https://www.thm.de/sport/images/podcast/SH3_Ü1.0_Skifliegerin_nur_Stimme.mp3"
                            },
                            "text": {
                                "de": "Übung 1: Skifliegen ohne Musik",
                                "en": "Exercise 1: Ski flying without music"
                            }
                        },
                        {
                            "imageUrl": "https://tinycampus.de/sport/images/hoerbuch.jpg",
                            "link": {
                                "de": "https://www.thm.de/sport/images/podcast/SH3_Ü1.1_Skifliegerin_nur_Stimme.mp3",
                                "en": "https://www.thm.de/sport/images/podcast/SH3_Ü1.1_Skifliegerin_nur_Stimme.mp3"
                            },
                            "text": {
                                "de": "Übung 1: Skifliegen - Variante 1 ohne Musik",
                                "en": "Exercise 1: Ski flying - Variation 1 without music"
                            }
                        },
                        {
                            "imageUrl": "https://tinycampus.de/sport/images/hoerbuch.jpg",
                            "link": {
                                "de": "https://www.thm.de/sport/images/podcast/SH3_Ü1.2_Skifliegerin_nur_Stimme.mp3",
                                "en": "https://www.thm.de/sport/images/podcast/SH3_Ü1.2_Skifliegerin_nur_Stimme.mp3"
                            },
                            "text": {
                                "de": "Übung 1: Skifliegen - Variante 2 ohne Musik",
                                "en": "Exercise 1: Ski flying - Variation 2 without music"
                            }
                        },
                        {
                            "imageUrl": "https://tinycampus.de/sport/images/hoerbuch.jpg",
                            "link": {
                                "de": "https://www.thm.de/sport/images/podcast/SH3_Ü2.0_Russian_Twist_nur_Stimme.mp3",
                                "en": "https://www.thm.de/sport/images/podcast/SH3_Ü2.0_Russian_Twist_nur_Stimme.mp3"
                            },
                            "text": {
                                "de": "Übung 2: Russian Twist ohne Musik",
                                "en": "Exercise 2: Russian Twist without music"
                            }
                        },
                        {
                            "imageUrl": "https://tinycampus.de/sport/images/hoerbuch.jpg",
                            "link": {
                                "de": "https://www.thm.de/sport/images/podcast/SH3_Ü2.1_Russian_Twist_nur_Stimme.mp3",
                                "en": "https://www.thm.de/sport/images/podcast/SH3_Ü2.1_Russian_Twist_nur_Stimme.mp3"
                            },
                            "text": {
                                "de": "Übung 2: Russian Twist - Variante 1 ohne Musik",
                                "en": "Exercise 2: Russian Twist - Variation 1 without music"
                            }
                        },
                        {
                            "imageUrl": "https://tinycampus.de/sport/images/hoerbuch.jpg",
                            "link": {
                                "de": "https://www.thm.de/sport/images/podcast/SH3_Ü2.2_Russian_Twist_nur_Stimme.mp3",
                                "en": "https://www.thm.de/sport/images/podcast/SH3_Ü2.2_Russian_Twist_nur_Stimme.mp3"
                            },
                            "text": {
                                "de": "Übung 2: Russian Twist - Variante 2 ohne Musik",
                                "en": "Exercise 2: Russian Twist - Variation 2 without music"
                            }
                        },
                        {
                            "imageUrl": "https://tinycampus.de/sport/images/hoerbuch.jpg",
                            "link": {
                                "de": "https://www.thm.de/sport/images/podcast/SH3_Ü2.3_Russian_Twist_nur_Stimme.mp3",
                                "en": "https://www.thm.de/sport/images/podcast/SH3_Ü2.3_Russian_Twist_nur_Stimme.mp3"
                            },
                            "text": {
                                "de": "Übung 2: Russian Twist - Variante 3 ohne Musik",
                                "en": "Exercise 2: Russian Twist - Variation 3 without music"
                            }
                        },
                        {
                            "imageUrl": "https://tinycampus.de/sport/images/hoerbuch.jpg",
                            "link": {
                                "de": "https://www.thm.de/sport/images/podcast/SH3_Ü3.0_Plank_mit_Stuhl_nur_Stimme.mp3",
                                "en": "https://www.thm.de/sport/images/podcast/SH3_Ü3.0_Plank_mit_Stuhl_nur_Stimme.mp3"
                            },
                            "text": {
                                "de": "Übung 3: Plank mit Stuhl ohne Musik",
                                "en": "Exercise 3: Plank with chair without music"
                            }
                        },
                        {
                            "imageUrl": "https://tinycampus.de/sport/images/hoerbuch.jpg",
                            "link": {
                                "de": "https://www.thm.de/sport/images/podcast/SH3_Ü3.1_Plank_mit_Stuhl_nur_Stimme.mp3",
                                "en": "https://www.thm.de/sport/images/podcast/SH3_Ü3.1_Plank_mit_Stuhl_nur_Stimme.mp3"
                            },
                            "text": {
                                "de": "Übung 3: Plank mit Stuhl - Variante 1 ohne Musik",
                                "en": "Exercise 3: Plank with chair - Variation 1 without music"
                            }
                        },
                        {
                            "imageUrl": "https://tinycampus.de/sport/images/hoerbuch.jpg",
                            "link": {
                                "de": "https://www.thm.de/sport/images/podcast/SH3_Ü3.2_Plank_mit_Stuhl_nur_Stimme.mp3",
                                "en": "https://www.thm.de/sport/images/podcast/SH3_Ü3.2_Plank_mit_Stuhl_nur_Stimme.mp3"
                            },
                            "text": {
                                "de": "Übung 3: Plank mit Stuhl - Variante 2 ohne Musik",
                                "en": "Exercise 3: Plank with chair - Variation 2 without music"
                            }
                        },
                        {
                            "imageUrl": "https://tinycampus.de/sport/images/hoerbuch.jpg",
                            "link": {
                                "de": "https://www.thm.de/sport/images/podcast/SH3_Ü3.3_Plank_mit_Stuhl_nur_Stimme.mp3",
                                "en": "https://www.thm.de/sport/images/podcast/SH3_Ü3.3_Plank_mit_Stuhl_nur_Stimme.mp3"
                            },
                            "text": {
                                "de": "Übung 3: Plank mit Stuhl - Variante 3 ohne Musik",
                                "en": "Exercise 3: Plank with chair - Variation 3 without music"
                            }
                        }
                    ]
                }
            ],
            "headline": {
                "de": "Hörbücher",
                "en": "Audiobooks"
            },
            "tab": {
                "de": "Hörbücher",
                "en": "Audiobooks"
            }
        },
        {
            "description": {
                "de": "Mit den vorgestellten Übungen wird speziell die Beweglichkeit der Gelenke trainiert. Sie können gezielt einzelne Bereiche mobilisieren oder den gesamten Körper.",
                "en": "The exercises presented specifically train the mobility of the joints. You can specifically mobilize individual areas or the entire body."
            },
            "segment": [
                {
                    "name": {
                        "de": "Überschrift für die Einträge",
                        "en": "Überschrift für die Einträge"
                    },
                    "entries": [
                        {
                            "imageUrl": "https://tinycampus.de/sport/images/studium360_logo.png",
                            "link": {
                                "de": "https://de.actionbound.com/bound/PowerBreakNr1",
                                "en": "https://en.actionbound.com/bound/PowerBreakNr1"
                            },
                            "text": {
                                "de": "Power Break Nr. 1",
                                "en": "Power Break No. 1"
                            }
                        },
                        {
                            "imageUrl": "https://tinycampus.de/sport/images/studium360_logo.png",
                            "link": {
                                "de": "https://de.actionbound.com/bound/PowerBreakNr2",
                                "en": "https://en.actionbound.com/bound/PowerBreakNr2"
                            },
                            "text": {
                                "de": "Power Break Nr. 2",
                                "en": "Power Break No. 2"
                            }
                        },
                        {
                            "imageUrl": "https://tinycampus.de/sport/images/studium360_logo.png",
                            "link": {
                                "de": "https://de.actionbound.com/bound/PowerBreakNr3",
                                "en": "https://en.actionbound.com/bound/PowerBreakNr3"
                            },
                            "text": {
                                "de": "Power Break Nr. 3",
                                "en": "Power Break No. 3"
                            }
                        },
                        {
                            "imageUrl": "https://tinycampus.de/sport/images/studium360_logo.png",
                            "link": {
                                "de": "https://de.actionbound.com/bound/PowerBreakNr4",
                                "en": "https://en.actionbound.com/bound/PowerBreakNr4"
                            },
                            "text": {
                                "de": "Power Break Nr. 4",
                                "en": "Power Break No. 4"
                            }
                        },
                        {
                            "imageUrl": "https://tinycampus.de/sport/images/studium360_logo.png",
                            "link": {
                                "de": "https://de.actionbound.com/bound/PowerBreakNr5",
                                "en": "https://en.actionbound.com/bound/PowerBreakNr5"
                            },
                            "text": {
                                "de": "Power Break Nr. 5",
                                "en": "Power Break No. 5"
                            }
                        }
                    ]
                }
            ],
            "headline": {
                "de": "Actionbounds",
                "en": "Actionbounds"
            },
            "tab": {
                "de": "Actionbounds",
                "en": "Actionbounds"
            }
        }
    ],
    "exercises": [
        {
            "name": {
                "de": "Durchatmen",
                "en": "Breathe deeply"
            },
            "id": 0,
            "imageUrl": "https://tinycampus.de/img/app/sport/ex1.png",
            "imageAltText": {
                "de": "Platzhalter",
                "en": "Placeholder"
            },
            "category": "mobility",
            "tags": [
                "anything",
                "shoulder",
                "neck",
                "biceps",
                "legs",
                "back"
            ],
            "exerciseMode": "none",
            "repetition": 8,
            "showDuration": true,
            "singleDuration": 8000,
            "totalDuration": 60000,
            "sets": 1,
            "instructions": {
                "effect": {
                    "de": "Entspannung, Schultermobilisation",
                    "en": "Relaxation, shoulder mobilization"
                },
                "startingPosition": {
                    "de": "aufrechter Stand, Arme hängen locker seitlich herunter",
                    "en": "upright stance, arms hanging loosely down at the sides"
                },
                "motionSequence": {
                    "de": "Arme vor dem Körper nach oben führen und dabei einatmen. Arme über dem Kopf ausstrecken und seitlich am Körper wieder nach unten führen und dabei ausatmen.",
                    "en": "Bring arms up in front of the body while inhaling. Extend arms above head and bring them back down to the side of the body while exhaling."
                },
                "repetitions": {
                    "de": "8x durchatmen",
                    "en": "Breathe deeply 8 times"
                }
            }
        },
        {
            "name": {
                "de": "Schultern heben & senken",
                "en": "Lift & lower shoulders"
            },
            "id": 1,
            "imageUrl": "https://tinycampus.de/img/app/sport/ex1.png",
            "imageAltText": {
                "de": "Platzhalter",
                "en": "Placeholder"
            },
            "category": "mobility",
            "tags": [
                "anything",
                "shoulder",
                "neck",
                "biceps",
                "legs",
                "back"
            ],
            "modes": "none",
            "repetition": 8,
            "showDuration": true,
            "singleDuration": 1000,
            "totalDuration": 60000,
            "sets": 3,
            "instructions": {
                "effect": {
                    "de": "Mobilisation und Lockerung der Schultern",
                    "en": "Mobilization and loosening of the shoulders"
                },
                "startingPosition": {
                    "de": "aufrechter Stand, Füße hüftbreit aufstellen",
                    "en": "upright stance, place feet hip-width apart"
                },
                "motionSequence": {
                    "de": "Schultern zu den Ohren ziehen und anschließend wieder nach unten drücken",
                    "en": "Pull shoulders to ears and then push back down"
                },
                "repetitions": {
                    "de": "3x 8 Wiederholungen",
                    "en": "3x 8 repetitions"
                },
                "variant": {
                    "de": "auch im Sitzen möglich",
                    "en": "also possible in a sitting position"
                }
            }
        },
        {
            "name": {
                "de": "Schultern kreisen",
                "en": "Circle shoulders"
            },
            "id": 2,
            "imageUrl": "https://tinycampus.de/img/app/sport/ex2.png",
            "imageAltText": {
                "de": "Platzhalter",
                "en": "Placeholder"
            },
            "category": "mobility",
            "tags": [
                "anything",
                "shoulder",
                "neck",
                "biceps",
                "legs",
                "back"
            ],
            "exerciseMode": "none",
            "repetition": 8,
            "showDuration": true,
            "singleDuration": 1000,
            "totalDuration": 60000,
            "sets": 3,
            "instructions": {
                "effect": {
                    "de": "Mobilisation und Lockerung der Schultern",
                    "en": "Mobilization and loosening of the shoulders"
                },
                "startingPosition": {
                    "de": "aufrechter Stand, Füße hüftbreit aufstellen",
                    "en": "upright stance, place feet hip-width apart"
                },
                "motionSequence": {
                    "de": "Schultern zu den Ohren ziehen und anschließend wieder nach unten drücken",
                    "en": "Pull shoulders to ears and then push them back down"
                },
                "repetitions": {
                    "de": "3x 8 Wiederholungen",
                    "en": "3x 8 repetitions"
                },
                "variant": {
                    "de": "auch im Sitzen möglich",
                    "en": "also possible in a sitting position"
                }
            }
        },
        {
            "name": {
                "de": "Schultern vor & zurück ziehen",
                "en": "Pull shoulders back & forth"
            },
            "id": 3,
            "imageUrl": "https://tinycampus.de/img/app/sport/ex3.png",
            "imageAltText": {
                "de": "Platzhalter",
                "en": "Placeholder"
            },
            "category": "mobility",
            "tags": [
                "anything",
                "shoulder",
                "neck",
                "biceps",
                "legs",
                "back"
            ],
            "exerciseMode": "none",
            "repetition": 8,
            "showDuration": true,
            "singleDuration": 1000,
            "totalDuration": 60000,
            "sets": 3,
            "instructions": {
                "effect": {
                    "de": "Mobilisation und Lockerung der Schultern",
                    "en": "Mobilization and loosening of the shoulders"
                },
                "startingPosition": {
                    "de": "aufrechter Stand, Füße hüftbreit aufstellen",
                    "en": "upright stance, place feet hip-width apart"
                },
                "motionSequence": {
                    "de": "Schultern nach vorne und anschließend nach hinten ziehen, die Schulterblätter nähern sich dabei an",
                    "en": "Pull the shoulders forward and then back, bringing the shoulder blades closer together."
                },
                "repetitions": {
                    "de": "3x 8 Wiederholungen",
                    "en": "3x 8 repetitions"
                },
                "variant": {
                    "de": "auch im Sitzen möglich",
                    "en": "also possible in a sitting position"
                }
            }
        },
        {
            "name": {
                "de": "Katze - Kuh",
                "en": "Cat - Cow"
            },
            "id": 4,
            "imageUrl": "https://tinycampus.de/img/app/sport/ex4.png",
            "imageAltText": {
                "de": "Platzhalter",
                "en": "Placeholder"
            },
            "category": "mobility",
            "tags": [
                "anything",
                "shoulder",
                "neck",
                "biceps",
                "legs",
                "back"
            ],
            "exerciseMode": "alternating",
            "repetition": 8,
            "showDuration": true,
            "singleDuration": 1000,
            "totalDuration": 60000,
            "sets": 3,
            "instructions": {
                "effect": {
                    "de": "Mobilisation der Wirbelsäule",
                    "en": "Mobilization of the spine"
                },
                "startingPosition": {
                    "de": "Füße hüftbreit aufstellen, Knie leicht beugen, Hände auf den Knien abstützen und Oberkörper vorbeugen",
                    "en": "Place feet hip-width apart, bend knees slightly, rest hands on knees and bend upper body forward"
                },
                "motionSequence": {
                    "de": "Rücken ganz rund machen, Kinn auf die Brust. Dann das Gesäß nach hinten und den Kopf nach oben nehmen. Beide Positionen abwechseln.",
                    "en": "Make back completely round, chin on the chest. Then take the buttocks back and head up. Alternate both positions."
                },
                "repetitions": {
                    "de": "3x 8 Positionswechsel von Katze zu Kuh und zurück",
                    "en": "3x 8 position changes from cat to cow and back"
                }
            }
        },
        {
            "name": {
                "de": "Fuß-Gym",
                "en": "Foot Gym"
            },
            "id": 5,
            "imageUrl": "https://tinycampus.de/img/app/sport/ex5.png",
            "imageAltText": {
                "de": "Platzhalter",
                "en": "Placeholder"
            },
            "category": "mobility",
            "tags": [
                "anything",
                "shoulder",
                "neck",
                "biceps",
                "legs",
                "back"
            ],
            "exerciseMode": "alternating",
            "repetition": 4,
            "showDuration": true,
            "singleDuration": 1000,
            "totalDuration": 60000,
            "sets": 3,
            "instructions": {
                "effect": {
                    "de": "Mobilisation der Fußgelenke",
                    "en": "Mobilization of the ankles"
                },
                "startingPosition": {
                    "de": "aufrecht sitzen, linkes Bein leicht anheben",
                    "en": "sit upright, lift left leg slightly"
                },
                "motionSequence": {
                    "de": "linken Fuß in der Luft kreisen, dann Bein/ Fuß wechseln",
                    "en": "circle left foot in the air, then change leg/foot"
                },
                "repetitions": {
                    "de": "3x je 4 Kreise rechts/ links (pro Seite)",
                    "en": "3x each 4 circles right/ left (per side)"
                },
                "variant": {
                    "de": "die Fußspitze Richtung Knie ziehen, dann den Fuß wieder strecken",
                    "en": "pull the tip of the foot towards the knee, then stretch the foot again"
                }
            }
        },
        {
            "name": {
                "de": "Fußwippe",
                "en": "Foot rocker"
            },
            "id": 6,
            "imageUrl": "https://tinycampus.de/img/app/sport/ex6.png",
            "imageAltText": {
                "de": "Platzhalter",
                "en": "Placeholder"
            },
            "category": "mobility",
            "tags": [
                "anything",
                "shoulder",
                "neck",
                "biceps",
                "legs",
                "back"
            ],
            "exerciseMode": "alternating",
            "repetition": 8,
            "showDuration": true,
            "singleDuration": 1000,
            "totalDuration": 60000,
            "sets": 3,
            "instructions": {
                "effect": {
                    "de": "Mobilisation Füße, verbesserte Durchblutung der Waden",
                    "en": "Mobilization feet, improved blood circulation in the calves"
                },
                "startingPosition": {
                    "de": "aufrechter Stand, Füße hüftbreit aufstellen",
                    "en": "stand upright, place feet hip width apart"
                },
                "motionSequence": {
                    "de": "abwechselnd auf die Zehenballen und auf die Fersen stellen",
                    "en": "alternately stand on the balls of the toes and on the heels"
                },
                "repetitions": {
                    "de": "3x 8 Fußwippen",
                    "en": "3x 8 foot rockers"
                },
                "variant": {
                    "de": "auch im Sitzen möglich",
                    "en": "also possible in a sitting position"
                }
            }
        },
        {
            "name": {
                "de": "Einbeiniger Stand & Fußkreisen",
                "en": "Single leg stance & foot circles"
            },
            "id": 7,
            "imageUrl": "https://tinycampus.de/img/app/sport/ex7.png",
            "imageAltText": {
                "de": "Platzhalter",
                "en": "Placeholder"
            },
            "category": "mobility",
            "tags": [
                "anything",
                "shoulder",
                "neck",
                "biceps",
                "legs",
                "back"
            ],
            "exerciseMode": "alternating",
            "repetition": 4,
            "showDuration": true,
            "singleDuration": 1000,
            "totalDuration": 60000,
            "sets": 3,
            "instructions": {
                "effect": {
                    "de": "Verbesserung des Gleichgewichts, Fußmobilisation",
                    "en": "Improvement of the balance, foot mobilization"
                },
                "startingPosition": {
                    "de": "aufrechter Stand, ein Bein vom Boden abheben, Standbein leicht gebeugt",
                    "en": "upright stance, lift one leg off the floor, stance leg slightly bent"
                },
                "motionSequence": {
                    "de": "Knie auf Hüfthöhe heben, nur den Fuß kreisen, Standbein wechseln",
                    "en": "Raise knee to hip level, circle foot only, change standing leg"
                },
                "repetitions": {
                    "de": "3x je 4 Fußkreise nach rechts/ links (pro Standbein)",
                    "en": "3x each 4 foot circles to the right/ left (per standing leg)"
                },
                "variant": {
                    "de": "eine liegende Acht kreisen",
                    "en": "circle a horizontal eight"
                }
            }
        },
        {
            "name": {
                "de": "Beinpendel",
                "en": "Leg pendulum"
            },
            "id": 8,
            "imageUrl": "https://tinycampus.de/img/app/sport/ex8.png",
            "imageAltText": {
                "de": "Platzhalter",
                "en": "Placeholder"
            },
            "category": "mobility",
            "tags": [
                "anything",
                "shoulder",
                "neck",
                "biceps",
                "legs",
                "back"
            ],
            "exerciseMode": "switching",
            "repetition": 8,
            "showDuration": true,
            "singleDuration": 1000,
            "totalDuration": 60000,
            "sets": 3,
            "instructions": {
                "effect": {
                    "de": "Mobilisation des Hüftgelenks, Verbesserung des Gleichgewichts",
                    "en": "Mobilization of the hip joint, improvement of balance"
                },
                "startingPosition": {
                    "de": "aufrechter Stand, Arme zur Seite strecken",
                    "en": "upright stance, arms stretched to the side"
                },
                "motionSequence": {
                    "de": "Linkes Bein anheben und langsam von links nach rechts vor dem Standbein schwingen, Standbein wechseln",
                    "en": "Lift left leg and swing slowly from left to right in front of stance leg, change stance leg"
                },
                "repetitions": {
                    "de": "3x 8 Pendel (pro Standbein)",
                    "en": "3x 8 pendulums (per standing leg)"
                },
                "variant": {
                    "de": "kleine Beinpendel hinter dem Standbein",
                    "en": "small leg pendulum behind the standing leg"
                }
            }
        },
        {
            "name": {
                "de": "Hula-Hoop",
                "en": "Hula hoop"
            },
            "id": 9,
            "imageUrl": "https://tinycampus.de/img/app/sport/ex9.png",
            "imageAltText": {
                "de": "Platzhalter",
                "en": "Placeholder"
            },
            "category": "mobility",
            "tags": [
                "anything",
                "shoulder",
                "neck",
                "biceps",
                "legs",
                "back"
            ],
            "exerciseMode": "alternating",
            "repetition": 4,
            "showDuration": true,
            "singleDuration": 1000,
            "totalDuration": 60000,
            "sets": 3,
            "instructions": {
                "effect": {
                    "de": "Mobilisation der unteren Wirbelsäule und der Hüfte",
                    "en": "Mobilization of the lower vertebral column and hip"
                },
                "startingPosition": {
                    "de": "aufrechter Stand, Arme zur Seite strecken",
                    "en": "upright stance, arms stretched to the side"
                },
                "motionSequence": {
                    "de": "Hüfte abwechselnd rechts und dann links herum kreisen, Oberkörper bleibt dabei aufrecht",
                    "en": "Rotate hips alternately around to the right and then to the left, keeping upper body upright"
                },
                "repetitions": {
                    "de": "3x je 4 Kreise nach rechts und nach links",
                    "en": "3x 4 circles each to the right and to the left"
                },
                "variant": {
                    "de": "eine liegende Acht kreisen",
                    "en": "circle a horizontal eight"
                }
            }
        },
        {
            "name": {
                "de": "Auf der Stelle gehen",
                "en": "Walk on the spot"
            },
            "id": 10,
            "imageUrl": "https://tinycampus.de/img/app/sport/ex10.png",
            "imageAltText": {
                "de": "Platzhalter",
                "en": "Placeholder"
            },
            "category": "mobility",
            "tags": [
                "anything",
                "shoulder",
                "neck",
                "biceps",
                "legs",
                "back"
            ],
            "exerciseMode": "none",
            "repetition": 3,
            "showDuration": true,
            "singleDuration": 60000,
            "totalDuration": 60000,
            "sets": 1,
            "instructions": {
                "effect": {
                    "de": "Erhöhung der Herzfrequenz, Aktivierung Herz-Kreislauf-System, Lockerung Arme und Beine",
                    "en": "Increase heart rate, activation cardiovascular system, loosening arms and legs"
                },
                "startingPosition": {
                    "de": "aufrechter Stand, Arme zur Seite strecken",
                    "en": "upright stance, arms stretched to the side"
                },
                "motionSequence": {
                    "de": "auf der Stelle gehen und dabei die Arme mitschwingen lassen",
                    "en": "walk on the spot, swinging the arms along with it"
                },
                "repetitions": {
                    "de": "3x 60 Sekunden",
                    "en": "3x 60 seconds"
                },
                "variant": {
                    "de": "etwas nach vorne und wieder rückwärts zurück laufen",
                    "en": "walk a little forward and back again"
                }
            }
        },
        {
            "name": {
                "de": "Saturday Night Fever",
                "en": "Saturday Night Fever"
            },
            "id": 11,
            "imageUrl": "https://tinycampus.de/img/app/sport/ex11.png",
            "imageAltText": {
                "de": "Platzhalter",
                "en": "Placeholder"
            },
            "category": "mobility",
            "tags": [
                "anything",
                "shoulder",
                "neck",
                "biceps",
                "legs",
                "back"
            ],
            "exerciseMode": "switching",
            "repetition": 8,
            "showDuration": true,
            "singleDuration": 3000,
            "totalDuration": 60000,
            "sets": 3,
            "instructions": {
                "effect": {
                    "de": "Mobilisation Schulter und Hüfte",
                    "en": "Mobilization shoulder and hip"
                },
                "startingPosition": {
                    "de": "aufrechter Stand auf dem linken Fuß, rechtes Knie und linken Ellenbogen vor dem Körper zusammenführen",
                    "en": "stand upright on the left foot, bring right knee and left elbow together in front of the body"
                },
                "motionSequence": {
                    "de": "gegengleich Arm und Bein seitlich lang wegstrecken und Knie und Ellenbogen dann wieder zusammenführen, Seitenwechsel",
                    "en": "at the same time stretch arm and leg sideways long away and then bring knee and elbow together again, change sides"
                },
                "repetitions": {
                    "de": "3x 8 Wiederholungen (pro Seite)",
                    "en": "3x 8 repetitions (per side)"
                },
                "variant": {
                    "de": "auch im Sitzen möglich",
                    "en": "also possible in a sitting position"
                }
            }
        },
        {
            "name": {
                "de": "Armdreher",
                "en": "Arm rotator"
            },
            "id": 12,
            "imageUrl": "https://tinycampus.de/img/app/sport/ex20.png",
            "imageAltText": {
                "de": "Platzhalter",
                "en": "Placeholder"
            },
            "category": "strength",
            "tags": [
                "anything",
                "shoulder",
                "neck",
                "biceps",
                "legs",
                "back"
            ],
            "exerciseMode": "alternating",
            "repetition": 8,
            "showDuration": true,
            "singleDuration": 1500,
            "totalDuration": 60000,
            "sets": 3,
            "instructions": {
                "effect": {
                    "de": "Aktivierung der Schulter- und Armmuskulatur",
                    "en": "Activation of the shoulder and arm muscles"
                },
                "startingPosition": {
                    "de": "aufrechter Stand, Arme seitlich ausstrecken, rechte Handfläche zeigt nach oben, linke Handfläche zeigt nach unten",
                    "en": "stand upright, arms stretched out to the sides, right palm facing up, left palm facing down"
                },
                "motionSequence": {
                    "de": "im gleichmäßigen Rhythmus Handflächen abwechselnd nach oben und unten drehen",
                    "en": "turn palms up and down alternately in a steady rhythm"
                },
                "repetitions": {
                    "de": "3x 8 Armdrehungen (pro Seite)",
                    "en": "3x 8 arm rotations (per side)"
                },
                "variant": {
                    "de": "Kopf dreht sich nach rechts und links mit",
                    "en": "Head turns right and left with"
                }
            }
        },
        {
            "name": {
                "de": "Beinstrecker",
                "en": "Leg extension"
            },
            "id": 13,
            "imageUrl": "https://tinycampus.de/img/app/sport/ex17.png",
            "imageAltText": {
                "de": "Platzhalter",
                "en": "Placeholder"
            },
            "category": "strength",
            "tags": [
                "anything",
                "shoulder",
                "neck",
                "biceps",
                "legs",
                "back"
            ],
            "exerciseMode": "alternating",
            "repetition": 8,
            "showDuration": true,
            "singleDuration": 10000,
            "totalDuration": 60000,
            "sets": 3,
            "instructions": {
                "effect": {
                    "de": "Aktivierung der Hüftbeuge- und Oberschenkelmuskulatur",
                    "en": "Activation of the hip flexor and thigh muscles"
                },
                "startingPosition": {
                    "de": "Aufrechter Sitz auf einem Stuhl",
                    "en": "Sit upright on a chair"
                },
                "motionSequence": {
                    "de": "abwechselnd ein Knie anheben, das angehobene Bein strecken und halten",
                    "en": "alternately lift one knee, stretch and hold the lifted leg"
                },
                "repetitions": {
                    "de": "3 x 8 Kniestreckungen à 10 Sek. (pro Seite)",
                    "en": "3 x 8 knee extensions 10 sec. each (per side)"
                },
                "variant": {
                    "de": "Fußspitze des gestreckten Beines Richtung Knie ziehen",
                    "en": "Pull the tip of the foot of the stretched leg towards the knee"
                }
            }
        },
        {
            "name": {
                "de": "Einbein-Stand",
                "en": "Single leg stand"
            },
            "id": 14,
            "imageUrl": "https://tinycampus.de/img/app/sport/ex18.png",
            "imageAltText": {
                "de": "Platzhalter",
                "en": "Placeholder"
            },
            "category": "strength",
            "tags": [
                "anything",
                "shoulder",
                "neck",
                "biceps",
                "legs",
                "back"
            ],
            "exerciseMode": "alternating",
            "repetition": 8,
            "showDuration": true,
            "singleDuration": 10000,
            "totalDuration": 60000,
            "sets": 3,
            "instructions": {
                "effect": {
                    "de": "Verbesserung des Gleichgewichts, Aktivierung des Hüftbeugers, Rumpfstabilisation",
                    "en": "Improvement of the balance, activation of the hip flexor, trunk stabilization"
                },
                "startingPosition": {
                    "de": "aufrechter Stand, Füße hüftbreit aufstellen",
                    "en": "stand upright, place feet hip width apart"
                },
                "motionSequence": {
                    "de": "abwechselnd ein Bein anheben, dabei Oberschenkel waagerecht zum Boden halten, Blick nach vorne richten",
                    "en": "alternately lift one leg, keeping thighs horizontal to the floor, look forward"
                },
                "repetitions": {
                    "de": "3x 8 Wiederholungen à 10 Sek. (pro Seite)",
                    "en": "3x 8 repetitions 10 sec. each (per side)"
                },
                "variant": {
                    "de": "seitlich an der Wand abstützen",
                    "en": "support sideways against the wall"
                }
            }
        },
        {
            "name": {
                "de": "Windmühle",
                "en": "Wind mill"
            },
            "id": 15,
            "imageUrl": "https://tinycampus.de/img/app/sport/ex21.png",
            "imageAltText": {
                "de": "Platzhalter",
                "en": "Placeholder"
            },
            "category": "strength",
            "tags": [
                "anything",
                "shoulder",
                "neck",
                "biceps",
                "legs",
                "back"
            ],
            "exerciseMode": "alternating",
            "repetition": 8,
            "showDuration": true,
            "singleDuration": 1000,
            "totalDuration": 60000,
            "sets": 3,
            "instructions": {
                "effect": {
                    "de": "Kräftigung Schultermuskulatur und oberer Rücken",
                    "en": "Strengthening shoulder muscles and upper back"
                },
                "startingPosition": {
                    "de": "Füße hüftbreit aufstellen, Knie leicht beugen, Oberkörper mit geradem Rücken leicht nach vorne neigen",
                    "en": "Place feet hip-width apart, bend knees slightly, tilt upper body slightly forward with straight back"
                },
                "motionSequence": {
                    "de": "rechten Arm neben den Kopf ausstrecken, linken Arm seitlich neben dem Körper nach hinten strecken, dann Position wechseln. Arme dabei gestreckt lassen.",
                    "en": "Extend right arm next to head, stretch left arm back to side of body, then change position. Keep arms extended."
                },
                "repetitions": {
                    "de": "3x 8 gestreckte Armwechsel (pro Seite)",
                    "en": "3x 8 stretched arm changes (per side)"
                }
            }
        },
        {
            "name": {
                "de": "Plank",
                "en": "Plank"
            },
            "id": 16,
            "imageUrl": "https://tinycampus.de/img/app/sport/ex19.png",
            "imageAltText": {
                "de": "Platzhalter",
                "en": "Placeholder"
            },
            "category": "strength",
            "tags": [
                "anything",
                "shoulder",
                "neck",
                "biceps",
                "legs",
                "back"
            ],
            "exerciseMode": "none",
            "repetition": 3,
            "showDuration": true,
            "singleDuration": 20000,
            "totalDuration": 60000,
            "sets": 1,
            "instructions": {
                "effect": {
                    "de": "Ganzkörper-Kräftigung",
                    "en": "Full body strengthening"
                },
                "startingPosition": {
                    "de": "auf den Bauch legen, Unterarme aufstützen, Ellenbogen befinden sich unter den Schultern, Füße hüftbreit aufstellen",
                    "en": "lie on your stomach, rest your forearms, elbows are under your shoulders, place your feet hip-width apart"
                },
                "motionSequence": {
                    "de": "Oberkörper und Beine vom Boden abheben, Körpermitte fest anspannen und Körper in der Luft halten",
                    "en": "Lift upper body and legs off the ground, tense body center firmly and keep body in the air"
                },
                "repetitions": {
                    "de": "3x mind. 20 Sek. halten",
                    "en": "Hold 3x at least 20 sec."
                },
                "variant": {
                    "de": "Füße abwechselnd anheben",
                    "en": "Lift feet alternately"
                }
            }
        },
        {
            "name": {
                "de": "Stramme Waden",
                "en": "Tight calves"
            },
            "id": 17,
            "imageUrl": "https://tinycampus.de/sport/images/hochschulsport.jpg",
            "imageAltText": {
                "de": "Platzhalter",
                "en": "Placeholder"
            },
            "category": "stretch",
            "tags": [
                "anything",
                "shoulder",
                "neck",
                "biceps",
                "legs",
                "back"
            ],
            "exerciseMode": "alternating",
            "repetition": 3,
            "showDuration": true,
            "singleDuration": 20000,
            "totalDuration": 60000,
            "sets": 1,
            "instructions": {
                "effect": {
                    "de": "Dehnung der Wadenmuskulatur",
                    "en": "Stretching the calf muscles"
                },
                "startingPosition": {
                    "de": "aufrechter Stand, Füße parallel zueinander aufstellen, ein Bein nach hinten stellen",
                    "en": "stand upright, place feet parallel to each other, put one leg backwards"
                },
                "motionSequence": {
                    "de": "hinteres Bein strecken bis ein leichter Zug in Wade spürbar ist, vorderes Knie beugen, hintere Ferse bleibt am Boden",
                    "en": "stretch back leg until a slight pull is felt in calf, bend front knee, back heel stays on the floor"
                },
                "repetitions": {
                    "de": "3x 20 Sek. halten (pro Seite)",
                    "en": "Hold 3x 20 sec. (per side)"
                },
                "variant": {
                    "de": "Hände vor dem Körper an einer Wand auflegen",
                    "en": "Place hands in front of the body against a wall"
                }
            }
        },
        {
            "name": {
                "de": "Verbeugung",
                "en": "Bow"
            },
            "id": 18,
            "imageUrl": "https://tinycampus.de/img/app/sport/ex13.png",
            "imageAltText": {
                "de": "Platzhalter",
                "en": "Placeholder"
            },
            "category": "stretch",
            "tags": [
                "anything",
                "shoulder",
                "neck",
                "biceps",
                "legs",
                "back"
            ],
            "exerciseMode": "none",
            "repetition": 3,
            "showDuration": true,
            "singleDuration": 20000,
            "totalDuration": 60000,
            "sets": 1,
            "instructions": {
                "effect": {
                    "de": "Dehnung der Rückenmuskulatur",
                    "en": "Stretching the back muscles"
                },
                "startingPosition": {
                    "de": "aufrechter Stand vor einem Tisch o.ä., Füße hüftbreit aufstellen, Knie leicht beugen",
                    "en": "stand upright in front of a table or similar, place feet hip-width apart, bend knees slightly"
                },
                "motionSequence": {
                    "de": "Oberkörper vorbeugen, am Tisch festhalten, Gesäß nach hinten schieben und Rücken lang ziehen",
                    "en": "Bend the upper body forward, hold on to the table, push the buttocks backwards and pull the back long"
                },
                "repetitions": {
                    "de": "3x 20 Sek. halten",
                    "en": "Hold 3x 20 sec."
                }
            }
        },
        {
            "name": {
                "de": "Brustöffner",
                "en": "Chest opener"
            },
            "id": 19,
            "imageUrl": "https://tinycampus.de/img/app/sport/ex14.png",
            "imageAltText": {
                "de": "Platzhalter",
                "en": "Placeholder"
            },
            "category": "stretch",
            "tags": [
                "anything",
                "shoulder",
                "neck",
                "biceps",
                "legs",
                "back"
            ],
            "exerciseMode": "none",
            "repetition": 3,
            "showDuration": true,
            "singleDuration": 20000,
            "totalDuration": 60000,
            "sets": 1,
            "instructions": {
                "effect": {
                    "de": "Dehnung der vorderen Schulter-und Brustmuskulatur",
                    "en": "Stretching the front shoulder and chest muscles"
                },
                "startingPosition": {
                    "de": "aufrechter Stand, Hände hinter dem Rücken falten",
                    "en": "upright stand, hands folded behind the back"
                },
                "motionSequence": {
                    "de": "Schulterblätter nähern sich zu-einander an, Arme nach hinten/ oben strecken",
                    "en": "Shoulder blades come closer to each other, stretch arms backwards/upwards"
                },
                "repetitions": {
                    "de": "3x 20 Sek. halten",
                    "en": "Hold 3x 20 sec."
                },
                "variant": {
                    "de": "Arme nach unten ziehen",
                    "en": "Pull arms down"
                }
            }
        },
        {
            "name": {
                "de": "Schulterblattöffner",
                "en": "Shoulder blade opener"
            },
            "id": 20,
            "imageUrl": "https://tinycampus.de/img/app/sport/ex15.png",
            "imageAltText": {
                "de": "Platzhalter",
                "en": "Placeholder"
            },
            "category": "stretch",
            "tags": [
                "anything",
                "shoulder",
                "neck",
                "biceps",
                "legs",
                "back"
            ],
            "exerciseMode": "none",
            "repetition": 3,
            "showDuration": true,
            "singleDuration": 20000,
            "totalDuration": 60000,
            "sets": 1,
            "instructions": {
                "effect": {
                    "de": "Dehnung des oberen Rückens",
                    "en": "Stretching the upper back"
                },
                "startingPosition": {
                    "de": "aufrechter Stand, Arme nach vorne strecken und Hände auf Brusthöhe fassen",
                    "en": "stand upright, stretch arms forward and clasp hands at chest level"
                },
                "motionSequence": {
                    "de": "Arme gestreckt nach vorne schieben, Brustwirbelsäule rund machen, Kinn auf die Brust absenken",
                    "en": "Push arms stretched forward, make thoracic spine round, lower chin to chest"
                },
                "repetitions": {
                    "de": "3x 20 Sek. halten",
                    "en": "Hold 3x 20 sec."
                }
            }
        },
        {
            "name": {
                "de": "Flügel ausbreiten",
                "en": "Spreading wings"
            },
            "id": 21,
            "imageUrl": "https://tinycampus.de/img/app/sport/ex16.png",
            "imageAltText": {
                "de": "Platzhalter",
                "en": "Placeholder"
            },
            "category": "stretch",
            "tags": [
                "anything",
                "shoulder",
                "neck",
                "biceps",
                "legs",
                "back"
            ],
            "exerciseMode": "none",
            "repetition": 3,
            "showDuration": true,
            "singleDuration": 20000,
            "totalDuration": 60000,
            "sets": 1,
            "instructions": {
                "effect": {
                    "de": "Dehnung der Brustmuskulatur, Aktivierung der oberen Rückenmuskulatur",
                    "en": "Stretching of the chest muscles, activation of the upper back muscles."
                },
                "startingPosition": {
                    "de": "aufrechter Stand, Arme seitlich ausstrecken, Handflächen zeigen nach oben",
                    "en": "upright stance, arms stretched out to the sides, palms facing upwards"
                },
                "motionSequence": {
                    "de": "Schulterblätter nähern sich zueinander an, gestreckte Arme nach hinten führen",
                    "en": "Shoulder blades approach each other, bring stretched arms backwards"
                },
                "repetitions": {
                    "de": "3x 20 Sek. halten",
                    "en": "Hold 3x 20 sec."
                },
                "variant": {
                    "de": "mit den gestreckten Armen leicht vor und zurück wippen",
                    "en": "gently rock back and forth with the stretched arms"
                }
            }
        }
    ]
}
