{
    "//": "Data origin:",
    "///": "https://www.thm.de/organizer/index.php?option=com_thm_organizer&view=schedule_ajax&format=raw&task=getpools&programIDs=18",
    "////": "liste Pools von Medizinische Informatik (B.Sc. 2016): 18",
    "1. Sem., SP MTI": "742",
    "1. Semester": "41",
    "2. Sem., SP MTI": "743",
    "2. Semester": "42",
    "3. Sem., SP MTI": "744",
    "3. Semester": "43",
    "4. Semester": "966",
    "4.Semester SP MTI": "973",
    "5. Semester": "967",
    "5.Semester SP MTI": "974",
    "Hauptstudium, Pflichtmodule": "44",
    "Hauptstudium, Wahlpflichtmodule": "68",
    "Wahlpflichtmodule SP MTI": "975"
}