{  
"//":"Data origin:",
"///":"https://www.thm.de/organizer/index.php?option=com_thm_organizer&view=schedule_ajax&format=raw&departmentIDs=17&task=getpools&programIDs=388",
"////":"liste Wirtschaftsinformatik (B.Sc 2010) Modulpools/Semester",
    "1. Semester":"950",
    "2. Semester":"951",
    "3. Semester":"952",
    "4. Semester":"953",
    "5. Semester":"954",
    "6. Semester":"1034",
    "Informatik WP-Module":"955",
    "Mathematische WP-Module":"957",
    "Wirtschaftswiss. WP-Module":"958"
 }