{
    "blockApp": false,
    "hideNotificationIfUpdated": false,
    "hideHeaderLogo": true,
    "latestAndroidVersion": "0.9.8",
    "latestIosVersion": "0.9.8",
    "minimumVersionRequired": "0.9.8",
    "entries": [{
        "title": {
            "de": "Große App-Umstellung geplant, Update in Kürze verfügbar",
            "en": "Major app change planned, update available soon"
        },
        "body": {
            "de": "Wir stellen derzeit die App um. Es wird eine neue Authentifizierung geben. Für die zukünftigte Authentifizierung müsst ihr euch bei uns registrieren, dann könnt ihr euch aber auch geräteübergreifend anmelden und behaltet die Kontrolle über die Daten.",
            "en": "We are currently updating the app. For future authentication, you will need to register, but then you will be able to log in across devices and retain control of the data.",
            "test": "![Drag Racing](https://tinycampus.de/img/login_anim.gif)"
        }
    }]
}