{
    "badges": {
        "already_obtained": "unlocked",
        "categories": {
            "general": "General",
            "qanda": "Questions and answers"
        },
        "content": {
            "id_1": {
                "title": "Be Curious",
                "description": "Post one question"
            },
            "id_2": {
                "title": "Be more Curious",
                "description": "Post 5 questions"
            },
            "id_3": {
                "title": "Eager to Learn",
                "description": "Post 25 questions"
            },
            "id_4": {
                "title": "Helpful",
                "description": "Post one reply"
            },
            "id_5": {
                "title": "Wise",
                "description": "Post 5 replies"
            },
            "id_6": {
                "title": "Campus Encyclopedia",
                "description": "Post 25 replies"
            },
            "id_7": {
                "title": "Hearty Hug",
                "description": "Receive 5 hearts"
            },
            "id_8": {
                "title": "Popular",
                "description": "Receive 25 hearts"
            },
            "id_9": {
                "title": "Queen*King of Hearts",
                "description": "Receive 100 hearts"
            },
            "id_10": {
                "title": "tinyCampus Junior",
                "description": "Reach level 3"
            },
            "id_11": {
                "title": "tinyCampus Senior",
                "description": "Reach level 6"
            },
            "id_12": {
                "title": "tinyCampus Star",
                "description": "Reach level 11"
            }
        },
        "not_obtained": "locked",
        "obtainable_achievements": "Available achievements",
        "obtained_achievements": "Obtained achievements",
        "selection": {
            "currently_shown": "Currently displayed badges",
            "title": "Choose a badge"
        },
        "showcase": {
            "amount": {
                "times-0": "No further badges",
                "times-1": "{times} more badges",
                "times-2": "{times} more badges"
            },
            "show_all": "Show all",
            "title": "Achievements"
        },
        "title": "All badges"
    },
    "common": {
        "actions": {
            "add": "Add...",
            "back": "Back",
            "cancel": "Cancel",
            "fave": "Favor",
            "logout": "Logout",
            "logout_caps": "LOGOUT",
            "ok": "Okay",
            "reload": "Reload",
            "remove": "Remove",
            "confirm": "Confirm",
            "continue": "Continue",
            "unsubscribe": "Unsubscribe",
            "delete": "Delete",
            "send": "Send",
            "edit": "Edit",
            "skip": "Skip"
        },
        "coc": {
            "text": "## Code of Conduct\nWe, the tinyCampus team, expect our users to be respectful towards each other. If you do not comply with our rules, our moderators might ban your account and you will no longer be able to participate in the community. \n\n## No discrimination\nPlease treat each other with respect and dignity. tinyCampus is a safe space for every user. Friendly discussions are okay, but personal attacks cross the line. We do not allow content that directly or indirectly insult or attack individuals or group of people, based on following attributes: \n   * Ethnic background\n   * Religion / Ideology\n   * Disability or Illness\n   * Gender\n   * Sexual Identity\n   * Age\n   * Social Background\n   * Family Situation\n   * Appearance\n   * Etc.\n\n## No offensive content\nWe do not approve of certain types of content. One example is personal data, because we cannot ensure to whom this data belongs and whether it was posted with his or her approval. The following list is not exhaustive, but it should give you an impression on the type of content we do not want to see in tinyCampus. \n__Do not:__\n   * Post someone else’s personal data\n     * Post complete names \n     * Post addresses\n     * Post phone numbers\n     * Post email addresses\n     * Post social media handles\n   * Violate exam regulations\n   * Encourage or enable plagiarism\n   * Knowingly spread misinformation\n   * Post obscene or pornographic content\n   * Advertise your own or someone else’s product or websites \n   * Post links with content that violates our rules, e.g. copyright infringements, violence or pornography\n\n## Illegal content\nWe do not tolerate content that breaks the law. Violations against this rule will lead to legal consequences and possibly a report to the police. The following list is not exhaustive but a small selection of offenses falling under this category. \n   * Openly posting someone else’s name and events or behaviour pertaining to that person, violating their personality right / right of publicity\n   * Personal insults\n   * Calling for, threatening, or organizing violence or crimes\n   * Violence against animals and calling for such\n   * Organized hate\n   * Extremist content or content that glorifies violence\n   * Acts of terrorism\n   * Incitement or instructions for suicide, self-harm or eating disorders\n   * Content showing or approving of sexual abuse or exploiting minors\n   * Drug possession, drug dealing\n   * Copyright violations\n\n## Disruptive behaviour\nIt’s not just about content. We do not tolerate trolling and spamming, as well as misuse of features that are designed to help our users like the report-feature. The following behaviours are discouraged and can lead to you being banned.\n   * Provocative or generally disruptive behaviour (Trolling)\n   * Repeatedly posting the same content or pointless content (Spamming)\n   * Misusing features (e.g. intentionally reporting users for no reason)\n\n## Consequences for breaking the rules\nThis code of conduct is designed to show which kind of behaviour we discourage. Depending on how often and how grave users violate these rules, our moderators will ban those users. These users will still be able to use the app, but they will no longer be able to actively participate. Violations against the law can even result in a report to the police. \nThese rules are not an exhaustive list, but we hope that our intentions have become clear enough for you to realize what kind of behaviour and what types of content we don’t want to see in our app.  \n",
            "title": "Code of Conduct"
        },
        "external_links": {
            "dialog_headline": "Visit external site",
            "dialog_body": "This link leads to an external page. We do not take responsibility for the content of these sites."
        },
        "messages": {
            "loading": "loading",
            "logout": "Please confirm that you want to logout.",
            "logout_guest": "Are you sure you want to logout? Please secure your personal recovery code to log back in.",
            "delete_data": "Delete local user data",
            "delete_data_explain": "Affects the modules Organizer, Mensa and Important Links. These modules will be completely reset if the option is selected."
        },
        "report": {
            "button_label": "Report",
            "block_user": {
                "headline": "Block user",
                "body": "You will no longer see posts from this user.",
                "error": "An error occurred while blocking the user. Please try again.",
                "success": "The user is now blocked. Reload to hide the user's posts."
            },
            "overlay": {
                "headline": "Reported post",
                "body": "Tap to reveal"
            },
            "post": {
                "headline": "Report post",
                "body": "This post will be reported.",
                "error": "An error occurred while reporting the post. Please try again.",
                "success": "Thank you, the post was reported successfully."
            }
        },
        "privacy_policy": "Privacy policy"
    },
    "community": {
        "title": "Community"
    },
    "credits": {
        "title": "Credits"
    },
    "home": {
        "settings": {
            "modify_arrangement": "Press and hold to change the arrangement",
            "title": "Homescreen settings"
        },
        "title": "Home"
    },
    "popup": {
        "active": "active",
        "deactivated": "deactivated"
    },
    "login": {
        "confirm_coc": "I accept the code of conduct of tinyCampus.",
        "confirm_privacy_policy": "I accept the privacy policy of tinyCampus",
        "data_disclaimer": "# Account\n - Name (freely selectable)\n# Homescreen\n - Arrangement and selection of modules\n# Timeline\n - Filter settings\n - Favorites, Hidden and unpinned posts (Only visible to the user)\n - Hearts on timeline posts (Users only see the number, not from whom they came)\n# Profile\n - Profiles are not visible to other users.\n - Activated badges (achievements), *(Level = number of badges, will not be saved separately)*\n - Badge progress\n - Received Hearts (Users only see the number, not from whom they came)\n# Questions & Answers\n - User created questions and answers\n - Question views (Users only see the number, not who viewed the question)\n - Answers marked as \"helpful\" (can only be given by question author)\n - Hearts on questions and answers (Users only see the the number, not who has clicked what)\n# Cafeteria\n - Ratings (multiple possible per dish after 12 h)\n - User comments\n - Hearts on comments\n - Eating habits and cafeteria selection are NOT sent\n# Timetable\n - No data (only data from the THM Organizer is requested but not saved)\n# Semester Fee\n - No data (data is obtained directly from the THM and does not go through our server)\n# Business Cards (temporarily disabled)\n - All data is only stored on the device\n - Your business card can be shared with other users via QR code\n# Internal metrics\n - Number of daily users (Anonymous)\n - Number of successful and failed login attempts (Anonymous)",
        "errors": {
            "authenticate_failed": "Authentication failed. Please try again later.",
            "connectivity": "Connection failed. Please check your internet settings.",
            "credentials_incorrect": "Incorrect login data.",
            "default": "Your name is displayed when you write posts and comments.",
            "email_already_in_use": "This email is already in use. Please use a different email.",
            "email_not_verified": "Your email has not been verified yet. Check your email and confirm the link.",
            "reset_storage_failed": "ApplicationStorage could not be reset. Please contact our support.",
            "has_no_token": "No token existing. You will be logged out shortly.",
            "persist_token_failed": "Authentication token could not be stored. Please contact our support.",
            "register_existing_user": "This user name is already taken. Please choose a different one.",
            "register_failed": "Registration failed. Please try again later.",
            "unknown": "Unknown error. Please try again later or contact our support: info@tinycampus.de"
        },
        "form": {
            "hide_keyboard": "Hide keyboard",
            "email": {
                "not_email": "Not a valid email",
                "empty": "No input",
                "hint": "Your email address",
                "name": "Email",
                "name_reset": "Your used email",
                "hint_reset": "Enter to recover"
            },
            "display_name": {
                "empty": "No input",
                "hint": "Your display name",
                "name": "Display name"
            },
            "passwords": {
                "empty": "No input",
                "password_error": "Not a valid password",
                "hint": "Your password",
                "name": "Password",
                "one_number": "At least one number",
                "one_letter": "At least one letter",
                "number_of_characters": "At least 8 characters",
                "error_repeat": "The passwords do not match",
                "hint_repeat": "Repeat your password",
                "name_repeat": "Repeat password",
                "repetition_match": "Repetition must match"
            },
            "recovery_code": {
                "empty": "No input",
                "hint": "Insert here",
                "name": "Recovery Code"
            }
        },
        "greetings": {
            "day": "Hello",
            "evening": "Good Evening",
            "morning": "Good Morning"
        },
        "information": {
            "benefits_header": "Login benefits",
            "benefits_function": {
                "header": "Unlock all Features",
                "body": "You can use every module, the timeline, and customize your profile."
            },
            "benefits_community": {
                "header": "Interact with the Community",
                "body": "You can create questions, answers and other types of posts."
            },
            "benefits_reward": {
                "header": "Earn your Achievements",
                "body": "You can send and receive hearts as well as unlock badges."
            },
            "disclaimer_beta_data": "I accept that after the first release phase my data in tinyCampus will be completely removed.",
            "disclaimer_beta_data_explanation": "For several reasons we want a clean reboot as soon as THM authentication is possible. We will inform you in the timeline.",
            "disclaimer_beta_login": "When I log out, I can no longer log in with the same account.",
            "disclaimer_beta_login_explanation": "In the second phase you will be able to log in with your THM account. We announce the second phase.",
            "disclaimer_header": "What data do we collect?",
            "button": "Which benefits do i get from logging in?\nWhat data do we collect?"
        },
        "offline_notification": "You are in flight mode or offline. Please exit flight mode and establish an active internet connection to log in or register an account.",
        "recovery": {
            "title": "Your Recovery-Code",
            "copy": "Press to copy.",
            "managa_recovery": "Write down the recovery code or save it in your password manager. You can also find it in your profile."
        },
        "guest_mode": {
            "try": "I just want to try out the app",
            "verify_anytime": "You can be verified at any time",
            "deletion": "If you do not use the app for 60 consecutive days, the account will be deleted",
            "get_recovery": "Get a recovery code to get back to your account without password",
            "verify_in_app": "You can verify your account at any time in the app"
        },
        "skip": "Continue \n (without verification)",
        "login": "Login",
        "register": "Register",
        "send": "Send",
        "use_recovery_code": "Use Recovery Code",
        "forgot_password": "I have forgotten my password",
        "bouncy_ball": "Play Bouncy Ball",
        "approval": "By registering, you agree to the Terms and Conditions, the Privacy Policy and the Code of Conduct.",
        "approval_markdown": "By registering, you agree to the [Terms and Conditions](https://tinycampus.de/agb), the [Privacy Policy](https://tinycampus.de/datenschutz) and the [Code of Conduct](https://tinycampus.de/verhaltenskodex).",
        "email_send": "Email sent",
        "verification": {
            "check_status": "Check status",
            "verified": "Successfully verified",
            "check_emails": "Please check your email and click on the link",
            "verify_later": "You can also verify yourself later. But don't forget, because after 60 days an unverified account will be deleted."
        }
    },
    "modules": {
        "bouncy_ball": {
            "title": "Bouncy Ball",
            "description": "A simple game to pass the time. Can you make it into the community's top 10?",
            "show_highscore": "Show Highscores",
            "close_highscore": "Close Highscores",
            "new_game": "New Game",
            "no_rank": "No rank",
            "points": "{points} Points",
            "personal_best": "Personal best: {points}",
            "did_not_make_it": "You did not make it to the TOP 10.",
            "new_record": "New Record",
            "not_played": "Not yet played",
            "overall": "overall",
            "last_day": "last 24h"
        },
        "bulletin_board": {
            "description": "Placeholder",
            "title": "Bulletin Board"
        },
        "business_cards": {
            "description": "Create Business Card or scan others",
            "edit_screen": {
                "hint": "Hint",
                "hint_text": "Your profile data is only stored locally. Convert it to a QR code and let others scan it.",
                "title": "Edit Profile"
            },
            "qr": {
                "generate_code": "Generate QR Code",
                "scan_another_code": "Scan another QR Code",
                "scan_code": "Scan a QR Code",
                "show_own_code": "Have your profile scanned",
                "title": "Business cards"
            },
            "start_screen": {
                "contacts": {
                    "times-0": "{times} Contacts",
                    "times-1": "{times} Contact",
                    "times-2": "{times} Contacts"
                },
                "import_contacts": {
                    "times-0": "{times} contacts available",
                    "times-1": "Import {times} contact into the phone book.",
                    "times-2": "Import {times} contacts into the phone book."
                },
                "imported_contacts": {
                    "times-0": "{times} Contacts imported into the phone book.",
                    "times-1": "{times} Contact imported into the phone book.",
                    "times-2": "{times} Contacts imported into the phone book.."
                },
                "no_contacts_available": "No Contacts available.",
                "sort": {
                    "a_to_z": "A to Z",
                    "newest": "Newest"
                },
                "tip": "Export your contacts in time.",
                "title": "Business Cards",
                "your_contacts": "Your contacts"
            },
            "title": "Business Card",
            "vcard": {
                "contacts": {
                    "added_on": "Added on:",
                    "delete": "Delete",
                    "email": "Email",
                    "interests": "Interests",
                    "no_information": "no information",
                    "notes_on": "Notes on {name}",
                    "organisation": "Organization",
                    "phone": "Phone",
                    "role": "Role",
                    "share": "Share",
                    "time": "{day}.{month}.{year}, {hour}:{minute}",
                    "title": "Title",
                    "url": "URL",
                    "write_note": "write a note"
                },
                "form": {
                    "comment": "Your comment",
                    "comment_hint": "comment",
                    "email": "Your Email",
                    "email_error": "No valid email address.",
                    "email_hint": "foo@bar.de",
                    "interests": "Your interests",
                    "interests_hint": "Interests",
                    "job_title": "Your job title",
                    "job_title_hint": "job title",
                    "name": "Your name",
                    "name_hint": "First-/Lastname",
                    "occupation": "Your occupation",
                    "occupation_hint": "occupation",
                    "organisation": "Organization",
                    "organisation_hint": "Place of work or study",
                    "personal": {
                        "chars_of_available": "{count} of {max} characters available.",
                        "more_validators": " Other validators without further description",
                        "too_many_chars": "Too many characters",
                        "not_saved": "not saved",
                        "saved": "saved"
                    },
                    "phone_number": "Phone",
                    "phone_number_hint": "Your phone number",
                    "web_page": "Your URL",
                    "web_page_error": "Not a valid URL.",
                    "web_page_hint": "Web site"
                },
                "preview": {
                    "create_vcard": "Tap to create your personal business card",
                    "interests": "Interests:"
                }
            }
        },
        "cafeteria": {
            "description": "Check the current lunch menu and rate your meal.",
            "details": {
                "more": "MORE",
                "less": "LESS",
                "lunch_service": "Lunch service",
                "opening_times": "Opening times",
                "show_map": "Show on map"
            },
            "generator": "Sample Mensa {mensa}",
            "header": {
                "closes_at": "closes at",
                "disclaimer": "Errors and omissions excepted",
                "is_closed": "CLOSED",
                "is_open": "NOW OPEN",
                "now": "now",
                "opens_at": "opens at",
                "tap_here": "Tap for more details",
                "unknown": "Opening times unknown"
            },
            "items": {
                "additives": "Additives",
                "allergens": "Allergens",
                "description": "Description",
                "disclaimer": "Copyright of picture and food data:",
                "employees": "Employees",
                "filter_hint": "In the settings you can adjust which allergies you have and what you do not want to eat.",
                "guests": "Guests",
                "students": "Students",
                "too_many_requests": "A dish can only be rated every 12 hours",
                "warnings": {
                    "allergic": "This dish contains one or more ingredients that you might be allergic to.",
                    "dislike": "This dish contains ingredients that you do not want to eat.",
                    "not_vegan": "Not vegan",
                    "not_vegetarian": "Not vegetarian",
                    "personal_notes": "Personal notes"
                },
                "feedback": {
                    "cancel": "Cancel",
                    "comment": "Write a comment",
                    "counter_text": "of 140 letters remaining",
                    "delete_comment_headline": "Remove comment",
                    "delete_comment_description": "Do you want to remove your own comment?",
                    "rating": "Your rating",
                    "ratings": "ratings)",
                    "feedback_hint": "Your feedback for this dish",
                    "submit": "Submit",
                    "no_rating": "No ratings for this dish yet",
                    "your_comment": "Your comment"
                }
            },
            "overview": {
                "subtitle": "No cafeteria was selected. Please select at least one cafeteria in the settings to get started.",
                "title": "Cafeteria",
                "today": "today",
                "weekdays_full": {
                    "friday": "Friday",
                    "monday": "Monday",
                    "saturday": "Saturday",
                    "sunday": "Sunday",
                    "thursday": "Thursday",
                    "tuesday": "Tuesday",
                    "wednesday": "Wednesday"
                }
            },
            "prices": {
                "employees": "Employees (€€)",
                "guests": "Guests (€€€)",
                "students": "Students (€)",
                "title": "Status for price ranking"
            },
            "selection": {
                "min_selection_hint": "min. 2 Cafeterias",
                "order": "ORDER",
                "order_hint": "In the main view, your selected cafeterias will be shown in the order of your choice",
                "title": "Cafeteria selection",
                "selection": "SELECTION"
            },
            "settings": {
                "allergens": "Allergens",
                "allergens_list": {
                    "celery": "Celery",
                    "crustacean": "Crustaceans",
                    "cthulu": "Molluscs",
                    "egg": "Eggs",
                    "fish": "Fish",
                    "gluten": "Gluten",
                    "lupines": "Lupines",
                    "milk": "Milk",
                    "mustard": "Mustard",
                    "nuts": "Nuts",
                    "peanut": "Peanuts",
                    "sesame": "Sesame",
                    "soy": "Soy",
                    "sulfur": "Sulfites"
                },
                "allergic_to": "I'm allergic to that.",
                "change_order": "Change order",
                "choose_cafeteria": "Choose a cafeteria",
                "diet": "Diet",
                "disliked_ingredients": {
                    "alcohol": "Alcohol",
                    "alcohol_abbrv": "A",
                    "beef": "Beef",
                    "beef_abbrv": "B",
                    "fish": "Fish",
                    "fish_abbrv": "F",
                    "garlic": "Garlic",
                    "garlic_abbrv": "GRLC",
                    "gelatin": "Gelatin",
                    "gelatin_abbrv": "GL",
                    "lamb": "Lamb",
                    "lamb_abbrv": "L",
                    "pork": "Pork",
                    "pork_abbrv": "P",
                    "poultry": "Poultry",
                    "poultry_abbrv": "P",
                    "spicy": "Hot",
                    "spicy_abbrv": "HOT"
                },
                "dont_like": "I do not want to eat this",
                "filters": {
                    "no_filter": "No filters",
                    "title": "Filter Settings",
                    "vegan": "Vegan",
                    "vegetarian": "Vegetarian"
                },
                "selected": {
                    "times-0": "No Cafeterias selected",
                    "times-1": "{times} Cafeteria selected",
                    "times-2": "{times} Cafeterias selected"
                },
                "tap_to_change": "Tap to change the order of cafeterias",
                "title": "Cafeteria settings"
            },
            "title": "Cafeteria menu",
            "vegan_uppercase": "VEGAN",
            "vegetarian_uppercase": "VEGETARIAN",
            "wizard": {
                "allergies_explanation": "If you are allergic to something, you can select those ingredients here to highlight them",
                "allergies_hint": "it will be highlighted here",
                "avoid_ingredients": "Avoid ingredients",
                "almost_done": "Almost done!",
                "back": "Back",
                "cafeteria_order": "Cafeteria order",
                "choose_price_category": "Choose your price category",
                "choose_your_cafeteria": "Choose your cafeterias",
                "dislike_explanation": "You don't like something or you don't want to eat it? Select these ingredients and they will be highlighted",
                "finalize": "Finalize",
                "intro": {
                    "intro_first": "Personalize your Cafeteria Plan",
                    "intro_second": "Define the look of your Cafeteria Plan",
                    "selection_and_order": "Cafeteria Selection and Order",
                    "diet": "Diet",
                    "allergies": "Allergies",
                    "dislikes": "Disliked Ingredients",
                    "price": "Price Category",
                    "recommended": "Recommended"
                },
                "launch": "Configure Cafeteria Plan",
                "next": "Next",
                "next_up": "Next up: ",
                "price_category": "Price category",
                "quickstart": "Skip",
                "test_data": "Testdata (experimental)",
                "test_data_hint": "You can display demo data if there is no live-data available",
                "title": "Wizard"
            }
        },
        "coming_soon": {
            "description": "What's to come",
            "placeholder": "# New modules\n\n## Important links\n\nOnline services, email, library... There are so many services and platforms at the university that we cannot cover them all. In order to make your search a little easier, we have compiled all important links in a clearly arranged collection.\n\n## Study and Chill\n\nWe collect places for you to learn and relax around the campus. We will also give you information about internet and sockets on site. For this module we cooperate with \"Studium 360° - Rundum gesund und erfolgreich\" in cooperation with the THM university sports department. More information: [www.thm.de/sport/studium-360-grad](https://www.thm.de/sport/studium-360-grad)\n\n## [WI]r können Praxis\n\nTogether with the \"Praxisphasen-Referat\" of the \"Fachbereichs Wirtschaftsingenieurwesen (WI)\" in Friedberg and the student games workshop \"My Prof is a Gamer\" we are working on a playful module for the practical phase.\n\n## tinyMuseum\n\nAlso art and culture are not neglected at tinyCampus. We are working on one module together with the \"Institut für Altertumswissenschaften mit dem Arbeitsbereich Klassische Archäologie\" of the Justus Liebig-University, \"My Prof is a Gamer\", the \"Oberhessisches Museum\" and the \"Regionalmanagement Gießen\". For this purpose we have submitted an application to the \"Kulturstiftung des Bundes\" within the framework of the \"dive in\" funding program. More information: [www.kulturstiftung-des-bundes.de/de/projekte/erbe_und_vermittlung/detail/dive_in.html](https://www.kulturstiftung-des-bundes.de/de/projekte/erbe_und_vermittlung/detail/dive_in.html)\n\n# New features\n\n## Reminder functions\n\nTo make sure you won't miss any more lectures, we have added a reminder function to the timetable. We will also set up a reminder for the next semester.\n\n## More Achievements\n\nTo make it worthwhile to be active at tinyCampus, we are working on new badge designs and expanding existing ones.\n\n## Push News\n\ntinyCampus would also like to inform you about push messages. However, this is currently only possible via the notification systems of Google and Apple. Which data will be sent is uncertain. For this reason we have decided against this feature for the time being. But we have filed an application for the development of a data protection compliant alternative with the AG-QLS of THM. More about this soon.\n\n# And what else?\n\n## tinyCampus | School\n\nIn the context of a Corona emergency aid the team around tinyCampus helped an elementary school to a working and data secure video platform. We would like to expand the cooperation and make tinyCampus transferable to the school. For this purpose we have applied for a project from the Stifterverband für die Deutsche Wissenschaft e.V. as part of the anniversary initiative \"Wirkung hoch 100\". More information: [www.stifterverband.org/wirkunghoch100](https://www.stifterverband.org/wirkunghoch100)",
            "title": "Coming Soon"
        },
        "events": {
            "description": "Placeholder",
            "title": "Events"
        },
        "feedback": {
            "description": "Placeholder",
            "title": "Feedback"
        },
        "important_links": {
            "messages": {
                "error": "An error occurred while loading data.",
                "help_us": "We would be pleased if you could inform us in the questions and answers module or via info@tinycampus.de.",
                "socket_exception": "Error while loading the current links, maybe you are offline. Try again when you have a stable internet connection.",
                "no_update_required": "Data up to date, no update necessary.",
                "not_found_exception": "No corresponding file for update was found on the server.",
                "internal_server_error_exception": "Server side error, update failed.",
                "client_exception": "Something went wrong during connection setup. Check if you have a stable internet connection.",
                "no_valid_model": "The downloaded data cannot be displayed."
            },
            "description": "All important links in everyday university life",
            "expandable_expand": "EXPAND",
            "expandable_shrink": "CLOSE",
            "explain_headline": "Information about the module",
            "explain_description": "The important links are updated automatically on a regular basis. If there are new and relevant links, they are listed here in the module. Feel free to suggest further links if something is missing: info@tinycampus.de",
            "title": "Important Links",
            "all": "ALL",
            "bookmark": "BOOKMARKS",
            "no_bookmark": "No bookmarks added"
        },
        "organizer": {
            "announcement": "This feature will be released in summer 2020.",
            "data": {
                "unknown": "Unknown",
                "unknown_short": "UNK"
            },
            "description": "Create and personalize your timetable.",
            "placeholder": "When exactly does the lecture start again? And where does it take place? I've never been in that room before, where is that building? The schedule will help you keep track. You can put it together yourself, so you only see what you really need. You get more information about the courses and can add or remove lectures, exercises and exams as it suits you. You always have your personal tinyCampus timetable in your pocket.",
            "title": "Timetable",
            "ui": {
                "changes": {
                    "chip_label": "Notifications",
                    "delta_added": "Newly added",
                    "delta_amount_subtree_increased": "More subunits",
                    "delta_amount_subtree_decreased": "Less subunits",
                    "delta_description_changed": "Description changed",
                    "delta_name_changed": "Name changed",
                    "delta_removed": "Removed",
                    "clear_notifications_head": "Remove notifications",
                    "clear_notifications_body": "All listed notifications for this plan will be removed. Continue?",
                    "popup_clear_notifications": "Clear unread notifications",
                    "tap_to_read": "Tap when you have read everything",
                    "reset_all_notifications": "Clear all notifications",
                    "reset_all_notifications_head": "Clear all notifications",
                    "reset_all_notifications_body": "All listed notifications for all plans are removed. Continue?"
                },
                "config": {
                    "add_study_course": "Add another study course",
                    "available_modules": "{count} available modules",
                    "categories": "Categories",
                    "confirm": "Confirm and go to organizer",
                    "done": "Done",
                    "error_msg": "{msg}% Error?",
                    "lookup_hint": "You can either search for modules or add them using the categories.",
                    "modules": "modules",
                    "module_count": {
                        "times-0": "{times} modules",
                        "times-1": "{times} module",
                        "times-2": "{times} modules"
                    },
                    "no_modules": "no modules",
                    "no_modules_found": "no modules found",
                    "remove": "Remove",
                    "remove_element": "Remove {element}",
                    "remove_program_head": "Remove program",
                    "remove_program_body": "Are you sure you want to remove the entire plan? All selected modules and notifications will also be removed",
                    "remove_modules_head": "Remove selected modules",
                    "remove_element_body": "All selected modules will be removed.",
                    "reset_all_modules": "Remove all selected modules from all plans",
                    "saving_hint": "Your selection is automatically saved.",
                    "search_modules": "Search and add modules",
                    "selected": "selected",
                    "selected_modules": "selected modules",
                    "title": "Configuration"
                },
                "explanations": {
                    "directly_connected": "They are directly connected to each other.",
                    "interpretation_tc": "Interpretation of tinyCampus",
                    "multiple_explanation": "If a module is included in several semesters or categories, you will remove the module in all semesters and categories when removing it.",
                    "multiple_semesters": "Modules can be contained in several semesters or categories.",
                    "multiple_shown": "Why are certain modules displayed multiple times?"
                },
                "this_week": "Current week",
                "organizer": {
                    "configure_organizer": "Configure organizer",
                    "drawer": {
                        "back_caps": "BACK",
                        "cancel": "Cancel",
                        "change_color": "Change color",
                        "date": "Date",
                        "delete_options": {
                            "single_date": "Single entry",
                            "lesson_type": "Type of event",
                            "entire_subject": "Entire module"
                        },
                        "delete_options_short": {
                            "single_date": "Date",
                            "lesson_type": "Group",
                            "entire_subject": "Module"
                        },
                        "event_type": "Type of event",
                        "from": "From",
                        "from_to": "From - To",
                        "lecturer": "lecturer",
                        "oelement_count": {
                            "times-0": "{times} dates",
                            "times-1": "{times} date",
                            "times-2": "{times} dates"
                        },
                        "organization": "Organization",
                        "remove": "Remove",
                        "room": "room",
                        "to": "to",
                        "today": "today - ",
                        "type": "Type"
                    },
                    "duration": "Duration: {minutes} Min.",
                    "entries_removed": "Entries removed",
                    "error_messages": {
                        "connection_error": "Connection error",
                        "could_not_load_files": "Could not load data",
                        "error_while_loading": "Error while loading",
                        "no_data_found": "No data found",
                        "state_not_caught": "State was not caught: {state}",
                        "try_again": "loading failed, please try again",
                        "unknown_state": "Unknown State: {state}"
                    },
                    "leave_day_view": "Exit day view",
                    "load_caps": "LOADING",
                    "next_week": "next week",
                    "no_room_found": "no room found",
                    "organizer": "Organizer",
                    "page": {
                        "add_modules": "add modules",
                        "beta_disclaimer": "No guarantee for completeness, correctness and actuality",
                        "choose_modules": "Choose modules",
                        "choose_course_or_plan": "Choose course of study or plan",
                        "config_necessary": "Configuration necessary",
                        "configure_organizer": "Configure organizer",
                        "clear_deleted_single_dates": {
                            "count-0": "Restore deleted single dates",
                            "count-1": "Restore {count} deleted single entries",
                            "count-2": "Restore {count} deleted single entries"
                        },
                        "reset": "Reset",
                        "reset_entire_organizer": "Reset organizer entirely",
                        "reset_entire_organizer_question": "Reset the entire organizer?",
                        "reset_warning": "All settings will be completely reset.",
                        "search_study_course": "Search study course",
                        "title": "Organizer"
                    },
                    "preceding_week": "preceding Week",
                    "reinitialize": "reinitialize",
                    "reload": "Reload",
                    "revert_caps": "REVERT",
                    "week_widget": {
                        "data_from_here": "but there's still some data here:",
                        "future": "Future:",
                        "last_updated": "Last updated",
                        "past": "Past:",
                        "today": "today"
                    }
                },
                "pool_config": {
                    "body": "All modules of this category will be deselected.",
                    "cancel": "Cancel",
                    "deselect_everything": "Deselect everything",
                    "further_categories": "In further categories: {pools}",
                    "headline": "Deselect all modules in this category",
                    "remove": "Remove",
                    "remove_module": "Remove module?",
                    "select_everything": "Select everything",
                    "x_of_y": "{x} of {y}"
                },
                "reset_colors": "Reset colors",
                "refresh": "Refresh",
                "search_modules": {
                    "search": "Search"
                },
                "selected_modules": {
                    "body_text": "All selected modules will be removed.",
                    "headline": "Remove all selected modules",
                    "merged_subject_categories": "Categories:",
                    "remove": "remove",
                    "remove_all": "remove all",
                    "selected_modules": "selected modules"
                },
                "selected_program": {
                    "search": "Search",
                    "select_study_course": "Select study course:",
                    "try_again": "An error occurred, please try again",
                    "no_data": "No data found, please select something else"
                }
            }
        },
        "practice_phase": {
            "missing_phases": "In this module, everything about the practical phase in the department of industrial engineering will come in the next few days.",
            "title": "Practice phase",
            "choose_pp": "Choose a practice phase",
            "complete_all_groups": "Complete all the tasks to finish this group.",
            "contact_and_questions": "CONTACT AND QUESTIONS",
            "complete_groups_before": "complete the previous groups",
            "module_data": "Module data updated",
            "unlock_group_header": "Unlock group",
            "unlock_group_body": "Unlock this group. We recommend unlocking this group by completing the tasks from the previous group.",
            "unlock": "Unlock",
            "ready": "Ready",
            "submit": "Submit",
            "finished_percentage": "{percent}% abgeschlossen",
            "everything_done": "100% completed",
            "continue": "Continue",
            "pp_finished": "Practice phase completed",
            "pp_finished_text": "Enter your last name and matriculation number so that the Praxis office in Friedberg can see your success. You will receive an email.",
            "pp_finished_info": "You can send it only 1 time",
            "last_name": "Last name",
            "last_name_error_length": "The last name is too short.",
            "matriculation_number": "Matriculation number",
            "matriculation_number_error_length": "The matriculation number is too short.",
            "matriculation_number_error_chars": "The matriculation number contains characters that are not allowed.",
            "correct_data": "Are the data correct?",
            "checked_data": "I have checked the data",
            "send_one_time": "Send (one time)",
            "send_error": "An error has occurred during transmission.",
            "could_not_find_data": "Could not find data",
            "write_message_on_error": "Please write us in the questions and answers module or via info@tinycampus.de",
            "quiz_point_info": "Quiz: No full score",
            "lock": "Finish",
            "check_and_continue": "Check off and continue",
            "learning_unit": "Learning units",
            "fast_animation": "Fast animations",
            "vibration": "Vibration",
            "quiz": "Quiz",
            "no_questions_found": "No questions found {error_string}",
            "questions_problem": "Something is wrong with the question {faulty_question}. But that is not a problem, we mark the question as correct for you.",
            "question_number": "Question {number}",
            "frequently_questions": "Frequently asked questions",
            "access_web": "Tap to access the web page",
            "your_result": "Your result",
            "repeat_quiz": "Repeat quiz",
            "description": "Information and learning quiz",
            "pp_unit": {
                "information_material": "Info",
                "learn_everything": "Learn all the content for this unit",
                "learn": "Learn",
                "test_knowledge": "Test your gained knowledge in a quiz",
                "q_and_a_error": "The category of the practice phase can currently not be loaded.",
                "q_and_a_prefab_text": "I have a question about \"{unit}\":",
                "button_text_start": "START",
                "button_text_repeat": "REPEAT",
                "button_text_locked": "LOCKED",
                "medias": {
                    "link": "Link",
                    "document": "Document",
                    "video": "Video",
                    "error": "Error"
                }
            }
        },
        "q_and_a": {
            "helpful": {
                "marked_helpful": "best answer",
                "mark_as_helpful": "mark as best answer"
            },
            "answer_empty": "Please type in your answer",
            "answer": "Answer",
            "ask": "Ask a question",
            "be_the_first": "Be the first to answer",
            "categories": {
                "amount": {
                    "count-0": "No categories",
                    "count-1": "{count} category",
                    "count-2": "{count} categories"
                }
            },
            "user_q_and_a": "My questions",
            "all_questions": "All questions",
            "new_answers": {
                "times-0": "No new answers",
                "times-1": "{newAnswers} new answer",
                "times-2": "{newAnswers} new answers"
            },
            "my_contributions": "Your posts",
            "my_questions": "QUESTIONS",
            "no_questions": "You have not yet asked any questions",
            "my_replies": "REPLIES",
            "no_replies": "You have not replied to anyone yet",
            "added_categories": "Your selected categories",
            "more_categories": "Select other categories",
            "x_categories": {
                "times-0": "No categories available",
                "times-1": "{remainingCategories} category available",
                "times-2": "{remainingCategories} categories available"
            },
            "delete_question": "Delete question",
            "delete_answer": "Delete answer",
            "delete_question_text": "Your question will be removed and will no longer be visible to anyone.",
            "delete_answer_text": "Your answer will be removed and will no longer be visible to anyone.",
            "choose_category": "Choose category",
            "unsubscribe_category": "Unsubscribe category",
            "activity": {
                "times-0": "No activities",
                "times-1": "activity",
                "times-2": "activities"
            },
            "subcategories": {
                "times-0": "No subcategories",
                "times-1": "subcategory",
                "times-2": "subcategories"
            },
            "choose_subcategory": "Choose subcategory",
            "category": "Category",
            "all_categories": "All categories",
            "unsubscribe_text": "Are you sure you want to unsubscribe the category \"{module}\"?",
            "code_of_conduct": {
                "part_1": "We want our users to have a positive experience using our app. You can read more about this in our",
                "part_2": "Code of Conduct",
                "part_3": "."
            },
            "edited": "(edited)",
            "description": "Ask questions to the tinyCampus community",
            "enter_question": "Please fill in your question",
            "title": "Questions and answers",
            "visibility": "Visibility",
            "write_answer": "Answer",
            "your_answer": "Your answer",
            "your_question": "Your question",
            "number_of_characters": "Must not be empty"
        },
        "semester_fee": {
            "count_days": {
                "day-0": "days remaining",
                "day-1": "remaining day",
                "day-2": "remaining days"
            },
            "count_days_generic": {
                "day-0": "days",
                "day-1": "day",
                "day-2": "days"
            },
            "count_days_begin_pay": {
                "day-0": "days remaining until you can transfer",
                "day-1": "day until you can transfer",
                "day-2": "days until you can transfer"
            },
            "notice_weekend_card": {
                "header": "Notice",
                "grey_out_notice": "Grey out note",
                "description": "The last day of the transfer period is on the weekend. Make sure that the transfer arrives on time."
            },
            "view_detail": "Detail view",
            "view_main": "Main view",
            "for_summer_semester": "for the summer semester",
            "for_winter_semester": "for the winter semester",
            "timeline": {
                "end_payment": "End of payment period",
                "begin_payment": "Begin of payment period",
                "today": "today"
            },
            "emergency_url": "use_in_case_of_emergency",
            "already_paid": "I already paid",
            "bank_transfer_data": "Bank transfer data",
            "thm_official_site": "Visit official THM website",
            "not_paid": "I did not pay yet",
            "title": "Semester Fee",
            "fee_period": "Semester fee time period",
            "description": "Everything you need to know about the semester fee",
            "open_in_browser": "Open in browser",
            "disclaimer": "We do not take responsibility for the completeness, correctness and timeliness of the information. Please refer to the official data from the THM-website."
        },
        "sport": {
            "title": "University Sports",
            "description": "University Sports",
            "exercises": {
                "tap_to_continue": "Tap play to continue",
                "title": "My program",
                "effect": "Effect",
                "starting_position": "Starting position",
                "motion_sequence": "Motion sequence",
                "repetitions": "Repetitions",
                "variant": "Variant",
                "end_card": {
                    "done": "Done",
                    "exercises": {
                        "count-0": "exercises",
                        "count-1": "exercise",
                        "count-2": "exercises"
                    },
                    "quit": "Quit"
                },
                "alert_dialog": {
                    "continue": "Continue",
                    "headline": "Exit training?",
                    "body": "Do you want to end the workout early? Your progress will be lost.",
                    "quit": "Quit"
                }
            },
            "program": {
                "phases": {
                    "preparation": "Vorbereitung",
                    "execution": "Übung",
                    "pause": "Pause"
                }
            },
            "tabs": {
                "sport": {
                    "tab_title": "Move",
                    "instructions": "Instructions",
                    "exercise": "Exercises",
                    "procedure": "Procedure",
                    "manual": "manual",
                    "automatic": "automatic",
                    "exercises": {
                        "mobility": "Mobility",
                        "strength": "Strength",
                        "stretch": "Stretching"
                    },
                    "program_selection": "Programmauswahl",
                    "total_duration": "Total duration",
                    "pauses": "Pauses",
                    "music": "Music",
                    "music_desc": "Accompanying the exercises, suitable songs are played. Note: Songs are downloaded in the background.",
                    "start": "Starten",
                    "tts": "Read out texts (Text to Speech)",
                    "tts_desc": "Instruction, exercise and break are read aloud",
                    "show_more_options": "Show more options",
                    "show_effect": "Show effect",
                    "show_effect_desc": "Part of the instructions",
                    "show_start_pos": "Show starting position",
                    "show_start_pos_desc": "Part of the instructions",
                    "show_motion": "Show motion sequence",
                    "show_motion_desc": "Part of the instructions",
                    "show_repetition": "Show repetitions",
                    "show_repetition_desc": "Part of the instructions",
                    "show_variant": "Show variant",
                    "show_variant_desc": "Part of the instructions"
                }
            }
        },
        "zs": {
            "title": "Zentrale Studienberatung",
            "description": "Contact options",
            "disclaimer": "Die Zentrale Studienberatung (ZS) ist für die Kommunikation des THM-Studienangebots sowie für Information, Beratung und Unterstützung von Studieninteressierten und Studierenden zuständig.",
            "services": "Services",
            "subject_areas": "Subject Areas",
            "updated": "Updated",
            "call": "Call"
        }
    },
    "profile": {
        "flairs": {
            "tinycampus_editor": "tinyCampus-Editor",
            "tinycampus_team": "tinyCampus-Team",
            "tinycampus_moderator": "tinyCampus-Moderation",
            "my_prof_is_a_gamer": "My Prof is a Gamer",
            "kim_staff": "Kim Staff",
            "thm_staff": "THM Staff",
            "lecturer": "Lecturer",
            "zentrale_studienberatung": "Central Student Advisory Service",
            "studentenwerk": "Student Union",
            "thm_fitness_centre": "THM Fitness Centre",
            "thm_info": "THM Info",
            "thm_public_relations": "THM Public Relations",
            "zqe": "ZQE",
            "zekoll": "ZekoLL",
            "ux_workshop": "UX Workshop",
            "practice_wi": "WI Practice Office"
        },
        "hearts": {
            "amount": {
                "hearts-0": "No Hearts",
                "hearts-1": "{hearts} Heart total",
                "hearts-2": "{hearts} Hearts total"
            },
            "title": "Hearts overview"
        },
        "level": "Level {level}",
        "semantics": {
            "avatar": "Your profile picture"
        },
        "title": "Profile",
        "completed_on": "completed on"
    },
    "settings": {
        "about": "About tinyCampus",
        "account_settings": "Account settings",
        "app_name": "App name",
        "app_version": "Version",
        "brand_info": "Trademark information",
        "brand_info_page": {
            "markdown_body": "tinyCampus is a trademark registered at the DPMA (German Patent and Trademark Office).  \n\n\n\nRegister number: 302019027195 ",
            "url": "https://register.dpma.de/DPMAregister/marke/register/3020190271951/DE",
            "url_description": "Official register information at the DPMA"
        },
        "build_info": "Build-Information",
        "build_number": "Build number",
        "contact": "Contact",
        "credits": "The tinyCampus team",
        "credits_page": {
            "email": "Email",
            "preproduction": "Pre-production",
            "project_headline": "tinyCampus in the KiM project",
            "project_description": "tinyCampus is being developed by Team Crowdsourcing. Team Crowdsourcing part of the project \"Klasse in der Masse (KiM)\". The KiM-Project is running at the Technische Hochschule Mittelhessen (THM), funded by the \"Gemeinsame Bund-Länderprogramm für bessere Studienbedingungen und mehr Qualität in der Lehre\". The THM is one of the largest universities of applied sciences in Germany.",
            "role": {
                "art_animation": "Art & Animation",
                "assistant_producer": "Assistant Producer",
                "assistant_producer_copywriter": "Copywriter, Assistant Producer",
                "assistant_producer_pr": "Assistant Producer, Public Relations",
                "assistant_producer_scrummaster": "Assistant Producer, Scrum Master",
                "creative_director_teamleader": "Development Director, Team Lead",
                "pr_marketing_community_management": "PR & Marketing, Community Management",
                "design_print": "Design and Print",
                "dev_backend": "Backend Development",
                "dev_backend_lead_qa": "Backend Development, Lead Quality Assurance",
                "dev_frontend": "Frontend Development",
                "design": "Design",
                "design_frontend": "Frontend Design",
                "events": "Event Management",
                "events_pr": "Event Management, Public Relations",
                "lead_art": "Lead Artist",
                "lead_design": "Lead Design",
                "lead_frontend": "Lead Frontend",
                "lead_frontend_vice": "Deputy Lead Frontend",
                "lead_programming": "Lead Programming",
                "lead_project": "Project Direction",
                "lead_qa": "QA-Lead",
                "pr": "Public Relations",
                "producer": "Producer",
                "qa_usability": "Quality Assurance, Usability Testing",
                "td_admin_devops": "Technical Director, DevOps"
            },
            "special_thanks": "Special Thanks",
            "thanks": "Thanks"
        },
        "data_collection_notice": "What data do we collect?",
        "data_delete_process": "How do I delete my data?",
        "data_delete_process_page": {
            "markdown_body": "# Contact us via email\nWrite an informal email and tell us your Username. Log out afterwards. All data stored at tinyCampus will be removed and you will be informed via mail.\n\nLast updated: September 2020"
        },
        "data_usage_and_liability": "Data use and liability",
        "data_usage_and_liability_page": {
            "markdown_body": "# Copyright and use of data\n## tinyCampus\nAll documents, texts, graphics, sound documents, video sequences and animations used by tinyCampus correspond to the criteria described in the THM-Imprint [https://www.thm.de/site/impressum.html](https://www.thm.de/site/impressum.html) under \"Copyright\".\nWe also use the following data with the binding consent of the providers:\n## Studentenwerk Giessen\ntinyCampus uses data, images and text in the module: Cafeteria  \ninfo@studentenwerk-giessen.de\n## THM-Organizer\ntinyCampus uses data from the THM-Organizer in the module: Timetable  \nReferat Neue Medien  \njames.antrim@nm.thm.de\n## THM\ntinyCampus links directly to a THM website (thm.de) of the \"Studiensekretariat\" in the module: Semester Fee  \nstudiensekretariat@thm.de"
        },
        "debug": "Debug",
        "error_reporting": {
            "title": "Bug reports",
            "description": "Automatically send anonymous bug reports to tinyCampus",
            "explanation": "This enables us to identify and fix errors more quickly.",
            "show_dialogs": "Show dialogs on errors",
            "throw_exception": "Throw Exception (general error)",
            "throw_exception_loc": "Throw LocalizationException (translation error)",
            "exit_forced_debug_mode": "Exit debug-mode"
        },
        "games": {
            "title": "Games"
        },
        "legal_notice": "Legal Notice",
        "legal_notice_url": "https://www.thm.de/site/en/impressum.html",
        "licence": "Licence",
        "licence_name": "European Union Public Licence Version 1.2",
        "licence_url": "https://joinup.ec.europa.eu/collection/eupl/eupl-text-eupl-12",
        "privacy_policy": "Privacy Policy",
        "privacy_policy_url": "https://tinycampus.de/datenschutz/",
        "source_code": "Source code",
        "source_code_url": "https://gitlab.com/tinycampus/app",
        "source_code_backend": "Source code (Backend)",
        "source_code_backend_url": "https://gitlab.com/tinycampus/server",
        "language_settings": "Language Settings",
        "tap_change": "Tap to change",
        "snackbar_language_changed": "Language changed to English",
        "languages": {
            "english": "English",
            "german": "German",
            "language": "Languages"
        },
        "learn_more": "Tap to learn more",
        "package_name": "Package name",
        "title": "Settings",
        "wakelock": "Screen-Wakelock",
        "website": "Website",
        "website_link": "https://tinycampus.de",
        "display_settings": "Display Settings",
        "themes": {
            "light": "Light",
            "dark": "Dark"
        },
        "account": {
            "change_password": "Change password",
            "delete_account": "Delete account",
            "status": {
                "account_verified": "Account verified",
                "account_verify": "Verify account"
            },
            "set_email_password": "Set email and password",
            "search_recovery_code": "Recovery code is searched",
            "show_recovery": "Show recovery code",
            "press_to_show": "Press to display the code",
            "copy_code": "Code copied",
            "press_again": "Press again to copy",
            "verified": {
                "title": "Account verified",
                "description": "Email has been confirmed by you"
            }
        }
    },
    "splash_page": {
        "offline_message": "Continuing in offline mode...",
        "error_message": "An error has occurred. Please confirm your credentials."
    },
    "status_notification": {
        "button_dismiss": "Back to the app",
        "button_update": "Update available",
        "version_not_supported": "This version ({version}) is not supported anymore."
    },
    "timeline": {
        "entries": {
            "end": "No more posts available",
            "new": "New posts",
            "no_entries_provided": "No posts available",
            "read": "Read posts"
        },
        "errors": {
            "communication": "Communication error",
            "failed_fetch_entries": "Error loading timeline posts.",
            "failed_fetch_sources": "Sources could not be accessed."
        },
        "pinned": {
            "times-1": "{times} pinned entry",
            "times-2": "{times} pinned entries"
        },
        "settings": {
            "general": "General settings",
            "only_faves": "Show only favored entries",
            "restore_hidden_entries": "Restore removed posts",
            "restored_hidden_entries": "Posts restored",
            "subscriptions": "Subscriptions",
            "subscriptions_error": "You can only subscribe to channels that you have selected on your homescreen. You can still select system notifications and the editorial department.",
            "title": "Timeline Settings"
        },
        "sources": {
            "editorial_dept": {
                "title": "tinyCampus Team",
                "description": "Official tinyCampus information channel",
                "general": "General",
                "important": "Important information",
                "events": "Events"
            },
            "qanda": {
                "title": "Questions & Answers",
                "description": "Posts from the \"Questions & Answers\" module"
            },
            "thinkbig": {
                "title": "Think Big",
                "description": "Everything about the \"Think Big - Build Small\" conference",
                "comments": "Think Big - Comments"
            }
        },
        "title": "Timeline",
        "title_faves": "Timeline - Favorites"
    },
    "_version": "31",
    "title": "tinyCampus"
}
