[
    {
        "title": "Contact InfoCenter",
        "subtitle": "",
        "imageUrl": "",
        "url": "mailto:info@thm.de"
    },
    {
        "title": "InfoCenter (Gießen)",
        "subtitle": "Mon - Fri, 8 AM to 6 PM, +49 641 309 7777",
        "imageUrl": "",
        "url": "tel:+496413097777"
    },
    {
        "title": "InfoCenter (Friedberg)",
        "subtitle": "Mon - Fri, 8 AM to 4 PM, +49 6031 604 7777",
        "imageUrl": "",
        "url": "tel:+4960316047777"
    },
    {
        "title": "THM Chat",
        "subtitle": "Talk to our student staff about all your questions.\nMon - Fri, 2 PM to 6 PM",
        "imageUrl": "",
        "url": "https://www.thm.de/chat/php/app.php?widget-mobile"
    },
    {
        "title": "Personal Consultation",
        "subtitle": "You need personal advice all around your studies? Ask for an appointment. All sessions are confidential.",
        "imageUrl": "https://www.thm.de/site/images/thm/headers/hochschule/Studienberatung_-_Doris_2.png",
        "url": "https://www.thm.de/site/studium/sie-studieren/studienberatung.html"
    },
    {
        "title": "Appointments via Email",
        "subtitle": "",
        "imageUrl": "",
        "url": "mailto:studienberatung@thm.de"
    },
    {
        "title": "Study Advisory Website",
        "subtitle": "",
        "imageUrl": "https://www.thm.de/site/images/thm/headers/hochschule/Zentrale_studienberatung_main.jpg",
        "url": "https://www.thm.de/site/hochschule/zentrale-bereiche/zentrale-studienberatung.html"
    }
]
