[
    {
    "title": "Important Links",
    "items": [{
        "title": "THM Homepage",
        "url": "https://www.thm.de/site/",
        "imageUrl": "https://tinycampus.de/img/ogimage.png",
        "children": []
    },
        {
            "title": "Corona-Info",
            "url": "https://www.thm.de/site/corona-info.html",
            "imageUrl": "https://cdn2.iconfinder.com/data/icons/essential-web-4/50/alert-caution-exclamation-mark-error-512.png",
            "children": []
        },
        {
            "title": "THM Webmail",
            "url": "https://webmail.thm.de/rc/",
            "imageUrl": "https://cdn4.iconfinder.com/data/icons/aiga-symbol-signs/612/aiga_mail_bg-512.png",
            "children": []
        },
        {
            "title": "Online services for students",
            "url": "https://studien-sb-service.th-mittelhessen.de/docu/online.html",
            "imageUrl": "https://tinycampus.de/img/ogimage.png",
            "children": []
        },
        {
            "title": "Semester and lecture period",
            "url": "https://www.thm.de/site/studium/sie-studieren/semester-und-vorlesungszeiten.html",
            "imageUrl": "https://cdn1.iconfinder.com/data/icons/material-device/20/access-time-512.png",
            "children": []
        },
        {
            "title": "Informations for new students",
            "url": "https://www.thm.de/site/studium/sie-starten-ihr-studium/step-das-studieneinfuehrungsprogramm.html",
            "imageUrl": "https://tinycampus.de/img/ogimage.png",
            "children": []
        },
        {
            "title": "THM Organizer",
            "url": "https://www.thm.de/organizer/",
            "imageUrl": "https://cdn4.iconfinder.com/data/icons/48-bubbles/48/46.Calendar-512.png",
            "children": []
        },
        {
            "title": "Semester fee",
            "url": "https://www.thm.de/site/studium/sie-studieren/rueckmeldung.html",
            "imageUrl": "https://tinycampus.de/img/ogimage.png",
            "children": []
        },
        {
            "title": "Moodle",
            "url": "https://moodle.thm.de/login/index.php",
            "imageUrl": "https://e7.pngegg.com/pngimages/763/111/png-clipart-moodle-learning-management-system-synology-inc-e-learning-moods-trademark-orange.png",
            "children": []
        },
        {
            "title": "Panopto",
            "url": "https://thm.cloud.panopto.eu/Panopto/Pages/Home.aspx",
            "imageUrl": "https://tinycampus.de/img/ogimage.png",
            "children": []
        },
        {
            "title": "IT services",
            "url": "https://www.thm.de/its/services/netzdienste.html",
            "imageUrl": "https://cdn1.iconfinder.com/data/icons/travel-and-leisure-vol-1/512/16-512.png",
            "children": []
        }
    ]
},
    {
        "title": "Useful Links",
        "items": [{
            "title": "Fachbereiche",
            "url": "",
            "imageUrl": "",
            "children": [{
                "title": "Fachbereich BAU",
                "url": "https://www.thm.de/bau/",
                "imageUrl": "https://www.thm.de/bau/",
                "children": []
            },
                {
                    "title": "Fachbereich EI",
                    "url": "https://www.thm.de/ei/",
                    "imageUrl": "https://www.thm.de/ei/",
                    "children": []
                },
                {
                    "title": "Fachbereich ME",
                    "url": "https://www.thm.de/me/",
                    "imageUrl": "https://www.thm.de/me/",
                    "children": []
                },
                {
                    "title": "Fachbereich LSE",
                    "url": "https://www.thm.de/lse/",
                    "imageUrl": "https://www.thm.de/lse/",
                    "children": []
                },
                {
                    "title": "Fachbereich GES",
                    "url": "https://www.thm.de/ges/",
                    "imageUrl": "https://www.thm.de/ges/",
                    "children": []
                },
                {
                    "title": "Fachbereich MNI",
                    "url": "https://www.thm.de/mni/",
                    "imageUrl": "https://www.thm.de/mni/",
                    "children": []
                },
                {
                    "title": "Fachbereich Wirtschaft",
                    "url": "https://www.thm.de/w/",
                    "imageUrl": "https://www.thm.de/w/",
                    "children": []
                },
                {
                    "title": "Fachbereich IEM",
                    "url": "https://www.thm.de/iem/",
                    "imageUrl": "https://www.thm.de/iem/",
                    "children": []
                },
                {
                    "title": "Fachbereich M",
                    "url": "https://www.thm.de/m/",
                    "imageUrl": "https://www.thm.de/m/",
                    "children": []
                },
                {
                    "title": "Fachbereich MND",
                    "url": "https://www.thm.de/mnd/",
                    "imageUrl": "https://www.thm.de/mnd/",
                    "children": []
                },
                {
                    "title": "Fachbereich WI",
                    "url": "https://www.thm.de/wi/",
                    "imageUrl": "https://www.thm.de/wi/",
                    "children": []
                },
                {
                    "title": "Fachbereich MUK",
                    "url": "https://www.thm.de/muk/",
                    "imageUrl": "https://www.thm.de/muk/",
                    "children": []
                }
            ]
        },
            {
                "title": "THM International",
                "url": "https://www.thm.de/site/international.html",
                "imageUrl": "https://cdn1.iconfinder.com/data/icons/social-media-outline-6/128/SocialMedia_Website-Outline-512.png",
                "children": []
            },
            {
                "title": "Department for blind and disabled students (BliZ)",
                "url": "https://www.thm.de/bliz/",
                "imageUrl": "https://cdn2.iconfinder.com/data/icons/font-awesome/1792/wheelchair-512.png",
                "children": []
            },
            {
                "title": "Sports",
                "url": "https://www.thm.de/sport/",
                "imageUrl": "https://cdn2.iconfinder.com/data/icons/badminton/256/Badminton_Icon_set-02-512.png",
                "children": []
            },
            {
                "title": "Library",
                "url": "https://www.thm.de/bibliothek/",
                "imageUrl": "https://cdn4.iconfinder.com/data/icons/48-bubbles/48/11.Notebook-512.png",
                "children": []
            },
            {
                "title": "THMFind",
                "url": "https://hds.hebis.de/thm/index.php",
                "imageUrl": "https://cdn2.iconfinder.com/data/icons/simple-microphone-icon/512/Search_Icon-512.png",
                "children": []
            },
            {
                "title": "Exam Regulations",
                "url": "https://www.thm.de/site/studium/sie-studieren/pruefungsordnung.html",
                "imageUrl": "https://tinycampus.de/img/ogimage.png",
                "children": []
            },
            {
                "title": "Information about Exmatriculation",
                "url": "https://www.thm.de/site/studium/sie-beenden-ihr-studium/exmatrikulation.html",
                "imageUrl": "https://cdn3.iconfinder.com/data/icons/geosm-e-commerce/48/exit-3-512.png",
                "children": []
            },
            {
                "title": "Studentenwerk Gießen",
                "url": "https://www.studentenwerk-giessen.de/",
                "imageUrl": "https://tinycampus.de/img/ogimage.png",
                "children": []
            },
            {
                "title": "AStA",
                "url": "https://www.asta.thm.de/",
                "imageUrl": "https://tinycampus.de/img/ogimage.png",
                "children": []
            },
            {
                "title": "Legal Council",
                "url": "https://www.asta.thm.de/beratung-und-hilfe/rechtsberatung/",
                "imageUrl": "https://cdn0.iconfinder.com/data/icons/web-development-and-studio/512/16_Balance_court_judge_justice_law_legal_scale_scales-512.png",
                "children": []
            },
            {
                "title": "Job Offers",
                "url": "https://www.asta.thm.de/blog/category/angebote/job-angebote/",
                "imageUrl": "https://cdn2.iconfinder.com/data/icons/harry-potter-outline-collection-1/60/24_-_Harry_Potter_-_Outline_-_Daily_Prophet_Newspaper-512.png",
                "children": []
            }
        ]
    }
]
