<svg xmlns="http://www.w3.org/2000/svg" viewBox="0 0 583.08 428.31">
    <title>logo_black-vector</title>
    <g id="Ebene_2" data-name="Ebene 2">
        <g id="Ebene_1-2" data-name="Ebene 1">
            <g>
                <polygon
                        points="504.45 150.55 425.97 206.04 291.54 110.97 157.09 206.04 78.63 150.55 291.54 0 504.45 150.55"/>
                <polygon
                        points="583.08 206.15 583.08 317.12 425.83 428.31 347.2 372.71 347.2 261.74 425.83 317.34 583.08 206.15"/>
                <polygon
                        points="235.88 261.74 235.88 372.71 157.27 428.31 0 317.12 0 206.15 157.27 317.34 235.88 261.74"/>
                <polygon points="425.83 317.34 425.83 428.3 347.2 372.71 347.2 261.75 425.83 317.34"/>
                <polygon points="157.26 317.34 157.26 428.3 0 317.11 0 206.15 157.26 317.34"/>
                <polygon points="504.45 150.54 425.98 206.03 291.54 110.97 291.54 0.01 504.45 150.54"/>
            </g>
        </g>
    </g>
</svg>
